0	0	93	0	63	0	60	0	60
400	0	9533191	0	941395	0	150035	0	39258306
300	0	6313515	0	507591	0	108240	0	23179787
200	0	4105214	0	261972	0	66676	0	11234618
100	0	2378080	0	135414	0	45261	0	5312244
600	0	16196728	0	1617783	0	225625	0	89858985
500	0	13418945	0	1163769	0	178030	0	60294368
800	0	25208993	0	2984062	0	443165	0	154906592
700	0	26739077	0	2454123	0	411142	0	179874446
900	0	35288762	0	3775350	0	470200	0	190324552
1000	0	61264850	0	5358236	0	945938	0	324578321
1100	0	42218060	0	6052290	0	651900	0	284773167
1200	0	62847737	0	8098695	0	1054325	0	531515908
1300	0	56998576	0	9798942	0	883435	0	458612818
1400	0	82924939	0	11635254	0	1222377	0	527885504
1500	0	91911601	0	13142473	0	1341516	0	834806286
1600	0	80643613	0	14105423	0	1098187	0	639251998
1700	0	92291383	0	15847328	0	1232614	0	741352213
1800	0	101522072	0	18155092	0	1249853	0	778983387
1900	0	107579066	0	19973296	0	1314820	0	862522277
2000	0	154927933	0	24183636	0	1631012	1	587075910
2100	0	167916782	0	27489325	0	1942573	1	686935541
2200	0	147054900	0	29536137	0	1518271	1	319802952
2300	0	154800708	0	30195142	0	1620377	1	912724900
2400	0	167431984	0	34359060	0	1591280	1	756770605
2600	0	200032105	0	38815941	0	1898421	2	240086937
2500	0	229821427	0	37884886	0	2258659	2	789001692
2700	0	208843796	0	41135165	0	1971147	2	793219289
2800	0	268639463	0	48113917	0	2538352	2	868509634
2900	0	318606854	0	54306009	0	2835443	3	702719038
3000	0	323442087	0	54356470	0	2755336	2	526319174
3100	0	341310925	0	58243888	0	2952676	4	688059963
3300	0	324062701	0	62114136	0	2283892	3	657032067
3200	0	359526602	0	62522237	0	2844869	4	772787503
3400	0	338028688	0	68399816	0	2366604	4	136064942
3500	0	383764065	0	70290971	0	2415340	3	744779144
3600	0	375504160	0	73493347	0	2490093	4	769603824
3700	0	527899970	0	85867500	0	3417705	5	570280646
3800	0	443755417	0	84455972	0	2799258	6	941625587
3900	0	542254109	0	93763028	0	3694547	7	81740182
4000	0	468411566	0	92816867	0	2834988	6	313672475
4100	0	510842720	0	97530315	0	2826413	6	502872408
4200	0	672095325	0	107888701	0	3898205	8	15479025
4400	0	555207296	0	111545911	0	3215691	8	15166066
4300	0	643340771	0	115498633	0	3849782	10	47442207
4500	0	640968269	0	119388120	0	3238673	8	704734265
4600	0	702756968	0	127530054	0	3192241	8	741181594
4700	0	854462977	0	139791103	0	4304639	10	855292573
4800	0	748919347	0	133393804	0	3337210	10	425194981
4900	1	6906573	0	154392991	0	4805639	10	962606109
5000	0	982119292	0	148868047	0	3523865	11	852562019
5100	1	6315503	0	157837184	0	4612743	13	900162002
5200	0	955177541	0	171549781	0	4811097	12	217760892
5300	1	94049265	0	172854639	0	4722008	14	16661618
5500	1	17007065	0	173695520	0	3968272	13	542198119
5400	0	878351639	0	168262636	0	3846769	15	856186728
5600	1	186103015	0	188891051	0	5251995	15	439366028
5700	1	218150714	0	188958715	0	4057087	17	103923
5800	1	112749591	0	194980046	0	4076151	16	612442341
5900	1	196624077	0	202289259	0	4175915	18	745105369
6000	1	415382708	0	205896416	0	4286973	18	369126112
6100	1	414902332	0	212772105	0	4433260	18	360431252
6200	1	627668364	0	222968581	0	4430281	20	305251436
6300	1	548482874	0	248678221	0	5732564	24	325413904
6500	1	687641768	0	247451794	0	4754767	19	552817117
6400	1	439649012	0	238492734	0	6045767	23	897542227
6600	1	759259140	0	251035047	0	4804403	21	844692865
6700	1	818708464	0	256718113	0	4939318	23	313897445
6800	1	747167688	0	264260078	0	4777843	24	261801782
6900	2	24720604	0	284209338	0	6321000	27	810455292
7000	2	77762545	0	286829718	0	5040198	27	470151011
7100	2	181371497	0	307421719	0	6525779	26	963831363
7200	2	287600601	0	303363740	0	5230566	26	807417466
7300	2	349171173	0	313539271	0	5333858	30	112554026
7400	2	322757920	0	320569188	0	5341283	32	795142490
7500	2	808078969	0	354012547	0	6787426	31	50579007
7600	2	730011711	0	333665845	0	5545411	29	225812589
7700	2	739264772	0	346104996	0	5602535	32	314123060
7800	2	894839394	0	348365887	0	5579957	33	952423426
7900	2	833903714	0	371700144	0	7503800	34	531666170
8000	3	57920417	0	390229969	0	7329002	37	668808071
8100	3	80350095	0	377217475	0	5998977	33	747353603
8200	3	660797742	0	452060576	0	8616879	41	626609304
8300	3	549883149	0	396932089	0	6178399	41	568584908
8400	3	366958069	0	410351393	0	5901027	40	719952224
8500	4	80630858	0	462534714	0	5973323	40	433454466
8600	4	7264523	0	432641269	0	6276168	40	655660277
8700	3	836017903	0	443391366	0	8000897	39	4702963
8800	4	103224226	0	458661198	0	6459257	46	822920842
8900	4	70744288	0	470261007	0	6346104	47	599487508
9000	4	441613182	0	470997169	0	6732380	44	133727390
9100	4	749790874	0	507469365	0	8385304	46	567931721
9200	4	551064776	0	500922857	0	6689248	52	387247087
9300	4	518711755	0	518718605	0	6719404	49	544264620
9500	5	48462724	0	532162830	0	6843180	50	639757673
9400	4	375800256	0	520848686	0	9400198	55	497820551
9600	5	62941627	0	556184406	0	9734088	49	792535257
9700	5	614590200	0	601907536	0	9996208	55	293012868
9800	5	226820129	0	565787700	0	7122723	57	75303841
9900	4	627106896	0	868104184	0	9574206	57	771484883
10000	5	990013455	0	642314028	0	7514797	60	975859471
10100	6	300265964	0	611756897	0	7414582	60	782982400
10200	5	866373930	0	725407018	0	9548043	62	921483751
10300	6	80821581	0	630228375	0	7523638	62	218913122
10400	6	577452097	1	705266553	0	10416545	67	391073569
10500	6	699312787	0	726519838	0	7912348	63	977181621
10600	7	695209669	0	774216793	0	10455988	64	246158344
10700	6	587861073	0	706252876	0	7832465	69	143111420
10800	6	825695709	0	772476294	0	10273201	74	142150482
10900	7	22897937	1	838531875	0	10368590	71	217531511
11100	7	739863746	0	975832479	0	8131953	71	216190926
11000	7	488124294	1	122632871	0	8072744	76	409256287
11200	7	458819891	0	825436232	0	8207007	77	764435202
11300	7	562915803	0	876058645	0	11020494	75	632527077
11400	7	411903392	2	2399056	0	11608822	78	616585608
11600	8	524142673	0	890591516	0	8545618	79	563060061
11500	7	887055164	1	548768672	0	10731589	86	77386886
11700	8	658363425	0	962765303	0	10356350	81	965080022
11800	8	865182972	1	60706551	0	9088064	83	46340198
11900	8	651097630	1	204232827	0	8649465	88	650619561
12000	9	244996952	1	469540927	0	8871041	89	126297341
12100	9	437612662	1	192946854	0	11343619	86	236956363
12200	9	579591382	1	229594936	0	11424897	89	224607217
12300	9	538781271	1	288893953	0	11646988	92	493475175
12400	9	540354139	2	829272881	0	12613065	94	835135325
12500	10	247957739	1	979493046	0	14446571	90	23034314
12600	11	196686374	1	393988952	0	9308627	99	707638808
12700	10	69924427	1	272176312	0	9325507	98	504558531
12800	10	830813427	1	293589355	0	9503026	92	421741620
12900	10	254578135	2	108116896	0	9267514	104	611809511
13000	11	345091786	2	606664722	0	9495582	106	739374267
13100	11	419070347	1	463657363	0	9580970	103	611734987
13200	10	971283412	1	647901269	0	9686841	107	424746813
13300	10	833921470	1	605990205	0	9694529	107	957438230
13400	11	523668813	2	476515946	0	13362365	102	172086614
13500	11	251551508	3	262137450	0	10096676	104	483731174
13600	11	475165943	1	720960114	0	10058942	117	898599472
13700	11	925131633	2	530155226	0	10095427	113	23714743
13800	12	236029639	1	942785492	0	12879285	117	508131821
13900	12	265818508	3	13349026	0	10136194	115	298587339
14000	12	531734889	2	522054391	0	10232111	120	58986762
14100	12	263750973	2	124549641	0	10466240	123	354786104
14200	12	911139005	2	667817665	0	10354690	117	553291741
14300	13	41871837	2	671771224	0	10506675	123	697400953
14400	14	151688791	3	43908334	0	10483642	128	304287705
14500	13	413231482	3	83350475	0	13631731	123	287093138
14600	13	349484501	2	764991160	0	13797189	130	558025802
14700	13	848950662	2	737861654	0	10882078	126	647892949
14800	13	936662415	2	771378900	0	10872457	138	565432839
15000	14	325955673	3	442646109	0	10961509	127	244791879
14900	14	228018900	3	919094645	0	10847251	141	272453039
15100	14	740487593	2	995676551	0	11027170	143	533572756
15200	14	920283677	3	222113560	0	11388678	140	457334639
15300	15	633164054	3	170865211	0	11318450	139	785591961
15400	15	321467990	4	500412766	0	11368077	147	753593795
15500	15	480985194	3	404065883	0	12072787	146	499998444
15600	15	949250593	3	393825253	0	11560428	151	533621300
15700	16	19209885	3	566395678	0	11471107	159	520977626
15800	16	591271153	3	499383949	0	11558115	152	504143695
16000	16	733632051	4	331251953	0	11694206	153	358299105
15900	16	501676030	4	793374226	0	11747519	160	482170885
16100	17	131791265	3	859707940	0	11802573	164	901951445
16200	17	250846036	4	46956438	0	11897742	161	439884434
16300	17	534655748	4	20108551	0	16645078	161	306971354
16400	18	115790463	5	312117983	0	11798806	154	794049802
16500	17	964897514	4	501410040	0	12707078	173	690446112
16600	18	480573917	4	414952251	0	12559278	171	292818582
16700	19	460996157	4	509908335	0	12563938	171	620965311
16800	18	911914875	4	509819197	0	12374207	178	704191932
16900	19	291207282	4	116888005	0	12527236	166	581172906
17000	18	997013969	4	790710673	0	12768593	190	325717546
17100	19	905853754	4	853439338	0	12568445	175	412893136
17200	19	561193442	4	818362450	0	12987563	183	554616131
17300	20	773227114	5	106737163	0	12673763	187	865719784
17400	20	421310893	5	73522478	0	12785787	190	133706428
17500	20	934378902	5	503943228	0	16314646	189	504713036
17600	20	734178116	5	257202159	0	12844648	186	393782553
17700	21	303001400	5	429458245	0	12918620	201	1488349
17800	21	397688643	5	488358726	0	13245100	203	531144338
17900	21	842368056	5	698479897	0	13439803	195	441711105
18000	23	129282075	5	852789542	0	13017698	196	281621524
18100	21	899309045	5	803027228	0	13513114	205	942852872
18200	22	846820985	6	64512505	0	17032520	207	797514384
18300	22	769128895	6	68718736	0	13372996	210	154373806
18400	23	574658637	6	265695369	0	13592561	215	278461945
18500	23	539677557	6	352402947	0	13567728	217	96060192
18600	23	486078932	6	472094338	0	13850247	216	908626904
18700	24	253138108	6	663094298	0	13769463	215	816662486
18800	24	356159750	6	797937999	0	17657142	223	919849977
18900	24	575012184	6	811135205	0	13931763	224	851978746
19000	25	303950860	7	75118528	0	13969806	223	834470395
19100	25	701967695	7	59824848	0	14346792	229	20179227
19200	25	447337446	7	301608819	0	14179746	234	92170582
19300	25	794118751	7	340849948	0	14068033	228	674909524
19400	26	34856567	7	472179584	0	14806576	225	726223036
19500	27	82443637	7	561991885	0	14198738	260	405020369
19600	26	324025558	7	645972823	0	14358422	251	154989445
19700	27	251815083	7	806174123	0	14439722	232	329647179
19800	28	413944166	8	24287621	0	14800902	247	241745840
19900	27	670575423	7	958425089	0	14640710	243	380332796
20000	28	169460376	7	978751785	0	14275647	252	331588879
20100	27	729776893	8	324228200	0	14535832	256	987607168
20200	28	433608242	8	526816646	0	14912366	246	288053642
20300	29	400333751	8	768852133	0	19077301	267	130424855
20400	28	557000238	8	683585748	0	15026311	259	520271089
20500	29	894190042	8	961578540	0	14831707	259	466164029
20600	29	731034834	8	951582845	0	14776996	271	661017901
20700	29	552358663	9	61675717	0	15421588	278	334758226
20800	30	889635087	10	965948866	0	15310582	263	38440084
20900	29	422856644	9	410007009	0	15436336	278	244517101
21000	31	367793743	9	432466048	0	15434524	290	55612385
21100	31	108280122	9	742597938	0	19587819	270	563274543
21200	31	395965241	9	670891996	0	16042700	287	211868844
21300	32	422907375	9	965137651	0	15676235	288	533761867
21400	31	695219058	9	942393012	0	15737189	306	937283988
21500	33	551636869	12	96274924	0	15743585	286	179519525
21600	31	774874814	10	177287876	0	15831259	279	148370701
21700	33	264246814	10	559470521	0	19095118	300	935536925
21800	33	773634316	10	629413604	0	17936068	310	433918163
21900	33	755678842	11	65438763	0	16640378	298	171898074
22000	34	690290338	12	592675195	0	22306768	305	192682295
22100	33	964121098	10	904161643	0	16734243	309	813906827
22200	35	107569013	11	297656757	0	16351345	306	282723060
22300	35	431080504	11	490539965	0	16223648	312	191455972
22400	35	31300145	11	455715021	0	21076110	323	684195446
22500	36	769748743	13	508637462	0	21183712	327	377702600
22600	35	588009778	12	122901210	0	16747250	324	262809669
22700	36	626486642	11	909687833	0	16681534	320	980244207
22800	37	285042119	12	30520830	0	17044109	336	269749496
22900	36	959924081	12	175784706	0	16869061	335	67222551
23100	36	904471396	12	657717480	0	17028936	332	351199382
23000	38	235642516	14	135476696	0	17028392	348	974368718
23200	38	341506996	12	968758094	0	17206315	331	857688715
23300	39	594105030	13	70214007	0	21519039	347	341366778
23400	38	895252931	13	205793043	0	17189674	353	135248826
23500	39	990058649	14	929733875	0	16905098	344	755737541
23600	39	575919469	15	234639192	0	17154925	362	2785551
23700	40	746415150	13	430055259	0	20527785	354	755025430
23800	41	3594831	13	901601855	0	17473921	362	848001169
23900	40	328897796	13	730279600	0	17587708	352	174571229
24000	41	879383714	15	946626697	0	17743494	376	110344558
24100	40	989749043	14	70001077	0	17715156	366	810741094
24200	41	739361213	14	455903234	0	17874755	369	925888600
24300	43	118687906	14	372825369	0	18004051	362	707168446
24400	41	829284675	15	222930787	0	18158390	384	792336814
24500	44	110434422	16	269585941	0	17936248	375	630189830
24600	44	101370132	16	521530362	0	18349132	395	606711989
24700	45	609579061	14	951444178	0	18337243	393	706107388
24800	44	448053515	15	217975805	0	18407167	392	763373103
24900	43	820868575	15	274761945	0	18245336	377	775312919
25000	45	649824846	17	246858413	0	18554982	408	473876955
25100	44	116363650	15	848538300	0	23559465	400	529798136
25200	45	93219690	16	261569605	0	23603133	400	110802851
25300	46	797816249	16	187700038	0	18730665	395	837803753
25400	45	373337895	16	129364520	0	18612627	413	952802714
25500	47	434724528	17	771903422	0	18418564	417	592316971
25600	46	437502965	17	469245582	0	23759025	421	417161239
25700	46	861570793	16	881988211	0	24385405	441	943184225
25800	48	469471132	16	950569409	0	19002337	425	67534103
25900	47	514865687	16	819281099	0	19092565	439	905900765
26000	49	58335056	18	701353723	0	19033699	416	780720071
26100	47	956787098	18	8475988	0	19233188	437	470226857
26200	49	221894038	17	366868354	0	19638327	434	571117797
26300	50	226104598	17	740462417	0	19317367	451	481032749
26400	50	90838769	17	834229758	0	19529348	455	637315572
26500	51	88092457	19	821153166	0	19426914	435	298841845
26600	49	441975172	18	215719564	0	19574954	445	662971850
26700	51	797503806	18	649677430	0	19750138	458	899181687
26800	53	326997324	18	803901527	0	20307249	480	722231998
26900	52	388723419	18	702067623	0	19836664	454	458155529
27000	53	370703832	20	907206311	0	20012674	454	731355534
27100	51	317283483	19	140317429	0	19965751	477	114041525
27200	53	372655943	19	271526212	0	19905654	467	839589352
27300	54	833168364	19	840128297	0	20095775	478	617583959
27400	53	774584466	20	343776076	0	26724900	482	750407205
27500	55	313969354	20	310658480	0	27486534	475	271178782
27600	53	969472941	20	46264457	0	20285383	477	897789356
27700	56	104504414	20	469666096	0	20443701	511	312428159
27800	57	644328421	21	14488034	0	26329024	477	696752160
27900	55	562125469	20	733881620	0	26222491	494	137132917
28000	57	781291801	20	899506015	0	20844060	495	590120966
28100	57	291899655	21	63150523	0	20733204	516	157907204
28200	58	717756308	21	301120971	0	20849408	508	136257661
28300	58	275330396	21	319519110	0	20652225	525	106019709
28400	58	354994665	21	426775400	0	20975770	517	254459100
28500	59	667258075	22	231006130	0	20598126	520	560043940
28600	58	716102517	21	819636091	0	20862941	510	54647601
28700	60	498846844	22	33300112	0	21074464	531	565378981
28800	61	252865471	22	412981211	0	21266275	534	628760447
28900	59	801078826	22	459408701	0	21413324	533	232365274
29000	62	430948024	23	60047209	0	27101671	541	544019041
29100	60	324381952	22	944838055	0	21679878	545	515803405
29200	63	8313633	23	266117895	0	21822223	540	792061161
29300	63	88226581	23	401249290	0	21518150	545	166547853
29400	61	713716648	23	590359515	0	21654438	574	846182234
29500	64	133840390	23	741797966	0	27762504	547	124919657
29600	63	7912587	24	111578111	0	22239068	558	9048142
29700	65	246135795	24	428726692	0	21724464	564	393799405
29800	65	310189834	24	603094224	0	29315251	567	88564804
29900	65	226784528	24	736215704	0	27923917	579	543165748
30000	66	651918030	25	268129599	0	22066333	587	727108246
30100	64	953012218	24	664133454	0	21962900	579	773471587
30200	67	235849565	25	170940695	0	22316436	581	960489511
30300	67	693984017	25	275430437	0	22162962	588	972531325
30400	68	16602496	25	724777931	0	29161570	606	950120970
30500	68	643665279	26	184297720	0	28694543	604	224386080
30600	66	742807259	25	840102404	0	22748948	611	230065654
30700	69	473801566	26	409291647	0	30270244	595	822323463
30800	69	976232569	26	218709160	0	22653945	594	540323345
30900	69	917337110	26	610028450	0	22721858	623	260334509
31000	71	897482861	27	511689269	0	28994221	622	221357221
31100	70	87797797	27	201455781	0	22984519	615	32718515
31200	71	833641103	27	207568004	0	23025883	615	179792868
31300	72	401213144	27	820971989	0	23035865	641	916892294
31400	72	686555545	27	517959230	0	22997574	638	431313502
31500	75	442267738	30	664712495	0	23158676	630	459761631
31600	70	840555502	28	285090846	0	29976855	643	789929612
31700	74	172120799	28	866808776	0	23149338	650	640824280
31800	75	311149041	28	336431150	0	23378379	662	148375679
31900	75	996950962	28	556080266	0	29756163	651	479127789
32000	76	221570016	30	777250870	0	23584294	642	19232710
32100	74	889615267	29	404692083	0	23675745	671	685655198
32200	77	135056601	29	482331745	0	23958968	689	90587605
32300	77	427450827	29	403062121	0	24081232	691	500993874
/home/lauril/dev/symphony/elf/vdl-map.c:538, file_map_do, Unable to perform remapping
32400	77	879072289	29	882349376	0	23957039	683	588190074
/home/lauril/dev/symphony/elf/vdl-map.c:538, file_map_do, Unable to perform remapping
/home/lauril/dev/symphony/elf/vdl-map.c:538, file_map_do, Unable to perform remapping
/home/lauril/dev/symphony/elf/vdl-map.c:538, file_map_do, Unable to perform remapping
32500	78	801066685	29	948588779	0	24346750	674	760666618
/home/lauril/dev/symphony/elf/vdl-map.c:538, file_map_do, Unable to perform remapping
/home/lauril/dev/symphony/elf/vdl-map.c:538, file_map_do, Unable to perform remapping
/home/lauril/dev/symphony/elf/vdl-map.c:538, file_map_do, Unable to perform remapping
32600	78	707423372	30	207946919	0	23836080	683	611161001
/home/lauril/dev/symphony/elf/vdl-map.c:538, file_map_do, Unable to perform remapping
/home/lauril/dev/symphony/elf/vdl-map.c:538, file_map_do, Unable to perform remapping
/home/lauril/dev/symphony/elf/vdl-map.c:538, file_map_do, Unable to perform remapping
/home/lauril/dev/symphony/elf/vdl-map.c:538, file_map_do, Unable to perform remapping
/home/lauril/dev/symphony/elf/vdl-map.c:538, file_map_do, Unable to perform remapping
32700	80	386466381	30	558235470	0	24118469	649	687697040
