0	357	115	106	104
100	2460717	122702	42842	5145497
500	16213677	1418061	322194	93277228
600	21154808	1921849	440381	131867240
400	12363232	984861	215674	62149790
200	5278974	351988	103649	17383736
300	8692755	687394	169993	34013490
700	26808846	2523298	477363	180244783
900	30417613	3912617	545517	196599958
800	32545800	3303802	600773	235815252
1100	56233963	6744365	985952	441062004
1200	66164509	9174737	1130089	539608545
1000	47296572	5452102	844306	372869021
1300	76482213	9994566	1195127	625515761
1400	81671628	11525968	1259062	708244341
1600	101981189	15251958	1431089	979018565
1500	92794217	13471410	1338532	858809327
1800	103436458	17724669	1226566	188448619
1700	92216566	16156544	1188845	789715489
2000	154667792	24281953	1810347	556288314
1900	141134823	22231612	1775027	365524212
2100	167644835	26224685	1935583	726365968
2500	190698983	35755612	1764699	938192808
2300	198085820	31449417	2069578	395906736
2200	182972602	29374152	2017546	172801010
2400	205111388	34857134	2199752	670786396
2600	249621130	40794907	2376004	95648873
2700	262209658	44714016	2455284	684866703
2800	287556497	46723295	2570213	519797592
2900	312618280	50906715	2651491	231664557
3000	305755056	54900733	2715342	831873912
3200	348381426	61466668	2917609	598733137
3100	344041485	58629838	2937087	136537349
3400	366924918	67939025	3212927	651999630
3300	391435051	68847420	3058941	715043112
3500	427747321	73704081	3250606	552968765
3600	472575679	81381672	3502269	410883896
4000	605804125	93035255	2957005	403866797
3700	460350559	83515664	3350931	79698914
3800	596438011	86646179	3527970	444339833
3900	616452876	93116780	3768298	813016490
4100	602458361	103208841	3835479	640935668
4200	666414292	106094406	3919928	543653682
4300	692953355	112716095	4013403	404608137
4400	587586644	115610038	3165155	743147912
4700	755848087	140529020	4723519	910414182
4600	826609167	127390542	4339719	46860079
4500	832209364	124546254	4223765	539067869
4800	904541253	139119571	4562011	323741675
4900	4449645	144292662	4639417	167775023
5200	871174054	158327767	3941619	907581369
5000	6375499	153770560	4652552	785610419
5100	971951271	156367938	4679970	618362197
5300	241214833	169480776	4922386	995277993
5400	302230604	178355986	5187448	786589456
5500	333741761	186500074	5322890	544738716
5600	411692667	188510331	5301856	369597805
5700	224426565	198109620	4347366	267726155
5800	431549001	207161442	5372541	409741577
5900	581940603	210781665	5491113	913315272
6100	611048092	235879748	4635323	711140606
6000	560549572	215747416	5563083	199069626
6200	893926870	231722413	5895516	632818359
6300	30926467	240174905	5954206	274231496
6400	190731302	249603639	6212204	490303247
6500	35759981	258387362	5988618	185498740
6600	109990393	263437485	6153915	544190158
6700	426354419	272901945	6560357	173895896
6800	404957976	285227742	6537764	244453902
6900	501131250	274886803	5139087	187328982
7000	666612919	302018719	6711827	762910764
7100	945755039	329560666	7113276	502004482
7200	802693521	323750753	6805852	746210667
7400	949148428	326330524	5514068	897779711
7300	494650430	321805974	5397368	166829100
7500	74130131	343691419	7154709	991180228
7600	207766957	350031356	7267483	44151955
7700	584128768	366181903	7303515	480908881
7800	722254201	369682417	7451572	486096512
7900	697497101	399681970	7596237	804453369
8000	652939593	385112681	8028002	507990055
8100	65058910	393721880	7750318	713487815
8200	3652330	420602157	8399081	846189615
8300	92300232	421241289	7886114	178238863
8400	494751024	432866607	8059584	838908760
8500	586423760	462311277	8180664	986234005
8900	862884554	485889952	7137704	142427035
8600	429130858	621275063	8223712	645104027
8700	548790925	776510963	8384958	579787684
8800	708744543	492606394	8503038	945758821
9000	258971215	510765671	8665241	516573788
9100	516066517	514810137	8800941	187944329
9200	551157754	547527456	8763763	420252968
9300	443937658	762551140	7714688	587315779
9400	661041872	738472171	8840238	446062661
9500	790310382	665787454	9130516	143604429
9600	946521432	598466656	9271905	366829467
9700	998976507	607004466	9591368	39540802
9800	535345156	609078846	9542715	282615013
9900	610084344	102826527	9477525	281185502
10100	524712939	925450646	11297492	809010542
10000	859813808	928500818	9608559	366869372
10200	711381279	805875392	9615842	287694777
10300	816587925	6013975	9917638	986420520
10400	254619144	741890750	10073531	929006035
10500	700348344	788763912	10177198	667396909
10600	999006614	905253309	10122027	493818945
10700	75428828	937742371	10988580	365464926
11000	867421895	923812373	8648610	614062140
10800	131000954	791496574	10173667	765642207
10900	8927438	802396950	10422251	772239179
11100	451114418	984558371	10690609	445096994
11200	55092875	78834185	11002113	852502141
11300	741704064	133418377	8675080	987252656
11400	202284970	12890525	10831211	143089664
11700	354490309	523407924	9092506	642101905
11500	408656023	294263832	12183992	4644199
11600	880179044	146739065	11248266	976235663
11800	913593331	402660272	11378278	601992369
11900	543235304	524761624	11536205	791793901
12000	92464052	469062109	9238810	356616657
12100	845432554	823838288	12653627	498069759
12200	950617924	840089214	9380517	789496688
12400	866017721	931573357	12009970	778978973
12300	859572879	530323010	11905750	708589665
12500	360063850	834602240	12169716	358969559
12600	895771101	995898140	12203935	172788209
12700	235150655	224481667	12375116	524987772
12900	866172276	430331662	9787398	539361604
12800	117896450	187451338	12405960	446964189
13000	79439497	395039190	12762923	367060858
13100	120692080	573918421	12815563	240991318
13200	89688058	443967850	12691529	770063087
13300	376429012	526397905	12781555	110751373
13400	770795753	479316165	13015820	637927803
13500	895082459	625236335	12899043	28631468
13600	589016066	346556191	13173427	378209160
13700	559458035	793583497	13209545	605375966
13800	498489052	198435881	13431546	448384673
14000	658531015	238850886	10768186	718174922
13900	587028559	20175863	13534604	739262499
14100	585079551	517263934	13891097	816326377
14200	868407562	493294983	13468213	530612213
14300	438438392	219066772	13725882	647913424
14400	877976398	211478630	13864497	756413261
14500	416301960	760728051	13997017	95706848
14600	524004968	696381051	16963235	63386066
14700	902854576	706704343	11426139	172574482
14800	251915357	371738795	14278143	433034648
14900	69377595	751436554	12400791	881386085
15000	574363878	64331625	11635152	95772705
15100	666644692	296858878	14601511	472085183
15300	334266844	437615215	12048401	581899598
15200	379677393	274867369	14710944	452713811
15400	500830422	450523644	14856389	103082479
15500	804669251	794952245	14851176	808054097
15600	214959300	641040970	15036078	319543796
15700	547672503	734372163	15224490	641745747
15800	114298165	522854533	15474904	554916131
15900	776020414	714345919	15035030	239164901
16000	420798041	11053374	15492236	22011282
16100	313302830	189094948	15588795	90612358
16200	463439380	176106978	15539032	202043609
16300	379989985	522763240	15483628	544728686
16600	20035985	690614627	15944582	708778544
16400	933907614	217675816	16496395	831134661
16500	200926709	149757181	12946107	728050541
16700	441729772	903864656	16179435	419790980
16800	93255939	88083217	16288018	303395475
16900	713988257	188721659	16412709	699213060
17100	971135160	593999959	15293170	647800630
17000	761810314	486618254	16181863	984563477
17200	661150205	714650173	16445895	726905175
17300	20678105	538334754	16744663	476141518
17400	624791536	635833767	16804203	599275462
17500	425013033	878164908	16954055	876971601
17600	882974017	927646109	17041279	641521844
17700	382210659	328880558	16743483	770614202
17800	442996323	226333621	17043767	678593085
17900	934998058	529695221	19937939	208559625
18000	730096470	998531659	17425742	685618668
18100	43382725	183637651	17450826	606173354
18200	504793732	578679720	16981926	447335077
18300	203197777	847523415	17856993	166630711
18400	709945090	237163700	19430881	196118307
18500	455244750	310659853	17927156	360686263
18600	867605595	144940104	18187135	139292131
18700	884384332	487713109	18114856	361960943
18800	533118887	352546035	18110663	583728304
18900	82317179	747790172	18344951	872194687
19000	454130918	765245546	18478619	170818220
19100	523398704	862863672	18675954	1534794
19200	377046521	916766126	18305919	24498113
19300	584339615	353850568	18665051	720687771
19400	819721646	76832743	14818637	604690340
19500	902764572	316211223	18905487	486937718
19600	425396920	257330255	15068831	614760329
19700	629054118	768393003	19318041	972194970
19900	92957055	537296233	17798926	161184130
19800	731652892	601475362	18776429	87986485
20100	617254296	142188294	19570745	979912231
20000	252415397	225342916	22181283	60366330
20200	509807682	169504309	19706249	217121603
20300	631514970	433697389	19608849	69099473
20400	951381793	655509785	19705265	375998368
20500	156597897	667240014	15604016	787812917
20600	306367077	506459129	20056591	489943323
20700	978322960	620463727	21836278	889285956
20800	182944815	187526337	20301493	886444590
20900	887395990	329066508	20180771	723061924
21000	12536292	224169238	16266926	498180944
21100	29767422	714059572	20473604	7255381
21200	908344138	857336437	20445707	401013291
21300	860289317	120493718	20829447	960433216
21400	536184312	999772769	16753169	921638300
21500	228106328	247164428	21002267	738125672
21600	595497137	393449888	21164768	244628258
21700	82992066	612596414	21192150	451734911
21800	743987420	821222111	21120062	105119787
21900	537559878	57730880	23090275	189281463
22000	464074456	957889923	21178967	746754901
22100	487089848	21984069	20812421	740615194
22200	537559628	722609189	17479323	360656408
22300	885702227	319958900	21724778	879699253
22400	925088568	682363355	21978662	847554422
22500	233761914	18322040	22505622	359067594
22600	212825266	840685416	17547536	733064572
22700	876345960	952605323	21740814	726571407
22800	512040485	74836446	22025940	354611940
22900	35313141	72554057	22287538	719163280
23100	534226879	396380641	23989374	278220049
23000	431461216	646305292	22306758	448867742
23200	447545395	914019187	22587988	361549068
23300	247827054	853016169	24623511	441532951
23500	917748084	211745150	24604659	482202917
23400	663293317	141313728	24342124	218932414
23600	314829027	167208799	18916291	78548242
23700	539997426	718207568	23151867	83851213
23800	978518221	42243765	23261990	64443087
23900	244491664	55506314	22740831	358161993
24000	740597320	871249759	21007496	951609332
24200	926151057	82334871	18794771	963177277
24100	868573006	43201037	23129531	306261602
24300	535378291	475042827	23287436	62608689
24400	896616149	577070165	19661107	110068178
24500	1964877	270709333	24775709	767001766
24600	400130532	389433083	23905290	711255727
24700	284713331	736030533	24005996	943104000
24800	162102958	55839698	19510402	332774898
24900	217327510	801401766	26249743	905264920
25000	512095930	745833678	24032364	56647687
25100	638683766	173509371	24286095	601668774
25200	180405126	346889373	24597091	925530351
25300	123310649	381070623	24488548	302859752
25400	272753425	458649843	19935159	96498633
25500	933926624	760085999	25067106	507543000
25600	907205017	954996829	26954004	917377159
25700	874728896	126500664	24879754	410210661
25800	657510713	109161932	24973573	412199813
25900	445413878	586040005	25681488	39264861
26000	958846677	754567881	25180528	233562354
26100	416734915	932805312	24974838	825578976
26200	474667281	179573382	20021370	112425850
26300	801340033	186458768	26475871	620442114
26400	408668807	601798596	25331954	110113447
