%!PS-Adobe-2.0 EPSF-2.0
%%Title: source-temp/figures/antenna-coordinate-system.dia
%%Creator: Dia v0.97.2
%%CreationDate: Wed Oct 17 10:56:36 2012
%%For: lauril
%%Orientation: Portrait
%%Magnification: 1.0000
%%BoundingBox: 0 0 377 377
%%BeginSetup
%%EndSetup
%%EndComments
%%BeginProlog
[ /.notdef /.notdef /.notdef /.notdef /.notdef /.notdef /.notdef /.notdef /.notdef /.notdef
/.notdef /.notdef /.notdef /.notdef /.notdef /.notdef /.notdef /.notdef /.notdef /.notdef
/.notdef /.notdef /.notdef /.notdef /.notdef /.notdef /.notdef /.notdef /.notdef /.notdef
/.notdef /.notdef /space /exclam /quotedbl /numbersign /dollar /percent /ampersand /quoteright
/parenleft /parenright /asterisk /plus /comma /hyphen /period /slash /zero /one
/two /three /four /five /six /seven /eight /nine /colon /semicolon
/less /equal /greater /question /at /A /B /C /D /E
/F /G /H /I /J /K /L /M /N /O
/P /Q /R /S /T /U /V /W /X /Y
/Z /bracketleft /backslash /bracketright /asciicircum /underscore /quoteleft /a /b /c
/d /e /f /g /h /i /j /k /l /m
/n /o /p /q /r /s /t /u /v /w
/x /y /z /braceleft /bar /braceright /asciitilde /.notdef /.notdef /.notdef
/.notdef /.notdef /.notdef /.notdef /.notdef /.notdef /.notdef /.notdef /.notdef /.notdef
/.notdef /.notdef /.notdef /.notdef /.notdef /.notdef /.notdef /.notdef /.notdef /.notdef
/.notdef /.notdef /.notdef /.notdef /.notdef /.notdef /.notdef /.notdef /.notdef /.notdef
/space /exclamdown /cent /sterling /currency /yen /brokenbar /section /dieresis /copyright
/ordfeminine /guillemotleft /logicalnot /hyphen /registered /macron /degree /plusminus /twosuperior /threesuperior
/acute /mu /paragraph /periodcentered /cedilla /onesuperior /ordmasculine /guillemotright /onequarter /onehalf
/threequarters /questiondown /Agrave /Aacute /Acircumflex /Atilde /Adieresis /Aring /AE /Ccedilla
/Egrave /Eacute /Ecircumflex /Edieresis /Igrave /Iacute /Icircumflex /Idieresis /Eth /Ntilde
/Ograve /Oacute /Ocircumflex /Otilde /Odieresis /multiply /Oslash /Ugrave /Uacute /Ucircumflex
/Udieresis /Yacute /Thorn /germandbls /agrave /aacute /acircumflex /atilde /adieresis /aring
/ae /ccedilla /egrave /eacute /ecircumflex /edieresis /igrave /iacute /icircumflex /idieresis
/eth /ntilde /ograve /oacute /ocircumflex /otilde /odieresis /divide /oslash /ugrave
/uacute /ucircumflex /udieresis /yacute /thorn /ydieresis] /isolatin1encoding exch def
/cp {closepath} bind def
/c {curveto} bind def
/f {fill} bind def
/a {arc} bind def
/ef {eofill} bind def
/ex {exch} bind def
/gr {grestore} bind def
/gs {gsave} bind def
/sa {save} bind def
/rs {restore} bind def
/l {lineto} bind def
/m {moveto} bind def
/rm {rmoveto} bind def
/n {newpath} bind def
/s {stroke} bind def
/sh {show} bind def
/slc {setlinecap} bind def
/slj {setlinejoin} bind def
/slw {setlinewidth} bind def
/srgb {setrgbcolor} bind def
/rot {rotate} bind def
/sc {scale} bind def
/sd {setdash} bind def
/ff {findfont} bind def
/sf {setfont} bind def
/scf {scalefont} bind def
/sw {stringwidth pop} bind def
/tr {translate} bind def

/ellipsedict 8 dict def
ellipsedict /mtrx matrix put
/ellipse
{ ellipsedict begin
   /endangle exch def
   /startangle exch def
   /yrad exch def
   /xrad exch def
   /y exch def
   /x exch def   /savematrix mtrx currentmatrix def
   x y tr xrad yrad sc
   0 0 1 startangle endangle arc
   savematrix setmatrix
   end
} def

/mergeprocs {
dup length
3 -1 roll
dup
length
dup
5 1 roll
3 -1 roll
add
array cvx
dup
3 -1 roll
0 exch
putinterval
dup
4 2 roll
putinterval
} bind def
/dpi_x 300 def
/dpi_y 300 def
/conicto {
    /to_y exch def
    /to_x exch def
    /conic_cntrl_y exch def
    /conic_cntrl_x exch def
    currentpoint
    /p0_y exch def
    /p0_x exch def
    /p1_x p0_x conic_cntrl_x p0_x sub 2 3 div mul add def
    /p1_y p0_y conic_cntrl_y p0_y sub 2 3 div mul add def
    /p2_x p1_x to_x p0_x sub 1 3 div mul add def
    /p2_y p1_y to_y p0_y sub 1 3 div mul add def
    p1_x p1_y p2_x p2_y to_x to_y curveto
} bind def
/start_ol { gsave 1.1 dpi_x div dup scale} bind def
/end_ol { closepath fill grestore } bind def
28.346000 -28.346000 scale
-7.881415 -24.118585 translate
%%EndProlog


0.150000 slw
[] 0 sd
[] 0 sd
0 slc
0.000000 0.000000 0.000000 srgb
n 13.000000 19.000000 m 13.000000 11.542705 l s
[] 0 sd
0 slj
0 slc
n 13.000000 11.167705 m 13.250000 11.667705 l 13.000000 11.542705 l 12.750000 11.667705 l ef
n 13.000000 11.167705 m 13.250000 11.667705 l 13.000000 11.542705 l 12.750000 11.667705 l cp s
0.150000 slw
[] 0 sd
[] 0 sd
0 slc
n 13.000000 19.000000 m 8.383750 23.616250 l s
[] 0 sd
0 slj
0 slc
n 8.118585 23.881415 m 8.295362 23.351084 l 8.383750 23.616250 l 8.648916 23.704638 l ef
n 8.118585 23.881415 m 8.295362 23.351084 l 8.383750 23.616250 l 8.648916 23.704638 l cp s
0.150000 slw
[] 0 sd
[] 0 sd
0 slc
n 13.000000 19.000000 m 20.457295 19.000000 l s
[] 0 sd
0 slj
0 slc
n 20.832295 19.000000 m 20.332295 19.250000 l 20.457295 19.000000 l 20.332295 18.750000 l ef
n 20.832295 19.000000 m 20.332295 19.250000 l 20.457295 19.000000 l 20.332295 18.750000 l cp s
0.100000 slw
[] 0 sd
[] 0 sd
0 slc
0.000000 0.403922 0.000000 srgb
n 13.111088 18.131417 4.964353 4.964353 54.109256 128.806002 ellipse s
[] 0 sd
0 slj
0 slc
n 16.316253 21.924070 m 16.107351 22.442587 l 16.035357 22.172510 l 15.776098 22.068059 l ef
n 16.316253 21.924070 m 16.107351 22.442587 l 16.035357 22.172510 l 15.776098 22.068059 l cp s
0.100000 slw
[1.000000] 0 sd
[0.200000] 0 sd
0 slc
1.000000 0.647059 0.000000 srgb
n 13.000000 19.050000 m 16.250000 21.650000 l s
0.100000 slw
[0.200000] 0 sd
[0.200000] 0 sd
0 slc
n 16.375300 21.650300 m 16.350000 15.350000 l s
0.100000 slw
[] 0 sd
[] 0 sd
0 slc
0.000000 0.000000 1.000000 srgb
n 13.045606 16.377916 3.478342 3.478342 270.896029 331.361040 ellipse s
[] 0 sd
0 slj
0 slc
n 16.260531 15.045395 m 15.850118 14.665841 l 16.128150 14.694539 l 16.317927 14.489332 l ef
n 16.260531 15.045395 m 15.850118 14.665841 l 16.128150 14.694539 l 16.317927 14.489332 l cp s
0.200000 slw
[1.000000] 0 sd
[0.400000] 0 sd
0 slc
1.000000 0.000000 0.000000 srgb
n 13.000000 18.950000 m 16.500000 15.300000 l s
0.000000 0.000000 0.000000 srgb
gsave 8.500000 22.700000 translate 0.035278 -0.035278 scale
start_ol
2624 2688 moveto
1666 1380 lineto
2688 0 lineto
2169 0 lineto
1389 1056 lineto
632 0 lineto
128 0 lineto
1134 1406 lineto
192 2688 lineto
705 2688 lineto
1408 1730 lineto
2111 2688 lineto
2624 2688 lineto
end_ol grestore 
gsave 19.600000 18.450000 translate 0.035278 -0.035278 scale
start_ol
1542 -238 moveto
1360 -726 1187 -875 conicto
1015 -1024 726 -1024 conicto
384 -1024 lineto
384 -640 lineto
636 -640 lineto
813 -640 910 -555 conicto
1008 -470 1127 -155 conicto
1204 46 lineto
128 2688 lineto
603 2688 lineto
1418 586 lineto
2234 2688 lineto
2688 2688 lineto
1542 -238 lineto
end_ol grestore 
gsave 12.460000 12.505000 translate 0.035278 -0.035278 scale
start_ol
256 2688 moveto
2304 2688 lineto
2304 2279 lineto
682 320 lineto
2304 320 lineto
2304 0 lineto
192 0 lineto
192 409 lineto
1819 2368 lineto
256 2368 lineto
256 2688 lineto
end_ol grestore 
0.000000 0.000000 1.000000 srgb
gsave 14.650000 14.600000 translate 0.035278 -0.035278 scale
start_ol
2953 2240 moveto
1018 2240 lineto
1064 1319 1273 928 conicto
1534 448 1987 448 conicto
2443 448 2695 931 conicto
2917 1356 2953 2240 conicto
2944 2752 moveto
2859 3590 2695 3886 conicto
2434 4352 1987 4352 conicto
1522 4352 1276 3891 conicto
1082 3520 1024 2752 conicto
2944 2752 lineto
1984 4864 moveto
2731 4864 3158 4209 conicto
3584 3557 3584 2402 conicto
3584 1249 3158 594 conicto
2731 -64 1984 -64 conicto
1234 -64 810 594 conicto
384 1249 384 2402 conicto
384 3557 810 4209 conicto
1234 4864 1984 4864 conicto
end_ol grestore 
0.000000 0.403922 0.000000 srgb
gsave 13.005000 22.517500 translate 0.035278 -0.035278 scale
start_ol
2432 4864 moveto
2432 3648 lineto
3057 3648 3474 3162 conicto
3904 2666 3904 1792 conicto
3904 918 3474 422 conicto
3057 -64 2432 -64 conicto
2432 -1344 lineto
1856 -1344 lineto
1856 -64 lineto
1231 -64 811 422 conicto
384 918 384 1792 conicto
384 2666 811 3162 conicto
1231 3648 1856 3648 conicto
1856 4864 lineto
2432 4864 lineto
2432 448 moveto
2774 448 3007 778 conicto
3261 1146 3264 1792 conicto
3267 2432 3007 2806 conicto
2774 3136 2432 3136 conicto
2432 448 lineto
1856 448 moveto
1856 3136 lineto
1514 3136 1284 2806 conicto
1021 2432 1024 1792 conicto
1027 1146 1284 778 conicto
1514 448 1856 448 conicto
end_ol grestore 
1.000000 0.000000 0.000000 srgb
n 16.400000 15.400000 0.150000 0.150000 0 360 ellipse f
0.100000 slw
[] 0 sd
[] 0 sd
n 16.400000 15.400000 0.150000 0.150000 0 360 ellipse cp s
0.627451 0.125490 0.941176 srgb
gsave 16.717200 15.823200 translate 0.035278 -0.035278 scale
start_ol
1152 576 moveto
1152 -1344 lineto
576 -1344 lineto
576 3520 lineto
1152 3520 lineto
1152 3008 lineto
1334 3333 1611 3490 conicto
1888 3648 2274 3648 conicto
2913 3648 3312 3136 conicto
3712 2625 3712 1792 conicto
3712 959 3312 447 conicto
2913 -64 2274 -64 conicto
1888 -64 1611 93 conicto
1334 251 1152 576 conicto
3072 1792 moveto
3072 2421 2816 2778 conicto
2560 3136 2112 3136 conicto
1664 3136 1408 2778 conicto
1152 2421 1152 1792 conicto
1152 1163 1408 805 conicto
1664 448 2112 448 conicto
2560 448 2816 805 conicto
3072 1163 3072 1792 conicto
end_ol grestore 
gsave 12.185700 19.098500 translate 0.035278 -0.035278 scale
start_ol
1986 3136 moveto
1541 3136 1282 2776 conicto
1024 2417 1024 1792 conicto
1024 1167 1281 807 conicto
1538 448 1986 448 conicto
2427 448 2685 809 conicto
2944 1170 2944 1792 conicto
2944 2411 2685 2773 conicto
2427 3136 1986 3136 conicto
1984 3648 moveto
2731 3648 3157 3155 conicto
3584 2663 3584 1792 conicto
3584 924 3157 430 conicto
2731 -64 1984 -64 conicto
1234 -64 809 430 conicto
384 924 384 1792 conicto
384 2663 809 3155 conicto
1234 3648 1984 3648 conicto
end_ol grestore 
1.000000 0.000000 0.000000 srgb
n 12.973300 19.000000 0.150000 0.150000 0 360 ellipse f
0.100000 slw
[] 0 sd
[] 0 sd
n 12.973300 19.000000 0.150000 0.150000 0 360 ellipse cp s
gsave 14.099000 17.195400 translate 0.035278 -0.035278 scale
start_ol
2624 3072 moveto
2527 3105 2413 3120 conicto
2299 3136 2161 3136 conicto
1674 3136 1413 2810 conicto
1152 2485 1152 1876 conicto
1152 0 lineto
576 0 lineto
576 3520 lineto
1152 3520 lineto
1152 3008 lineto
1333 3333 1624 3490 conicto
1915 3648 2330 3648 conicto
2390 3648 2461 3648 conicto
2533 3648 2621 3648 conicto
2624 3072 lineto
end_ol grestore 
showpage
