%!PS-Adobe-2.0 EPSF-2.0
%%Title: source-temp/figures/ff-mac-saps.dia
%%Creator: Dia v0.97.2
%%CreationDate: Wed Oct 17 10:56:37 2012
%%For: lauril
%%Orientation: Portrait
%%Magnification: 1.0000
%%BoundingBox: 0 0 959 372
%%BeginSetup
%%EndSetup
%%EndComments
%%BeginProlog
[ /.notdef /.notdef /.notdef /.notdef /.notdef /.notdef /.notdef /.notdef /.notdef /.notdef
/.notdef /.notdef /.notdef /.notdef /.notdef /.notdef /.notdef /.notdef /.notdef /.notdef
/.notdef /.notdef /.notdef /.notdef /.notdef /.notdef /.notdef /.notdef /.notdef /.notdef
/.notdef /.notdef /space /exclam /quotedbl /numbersign /dollar /percent /ampersand /quoteright
/parenleft /parenright /asterisk /plus /comma /hyphen /period /slash /zero /one
/two /three /four /five /six /seven /eight /nine /colon /semicolon
/less /equal /greater /question /at /A /B /C /D /E
/F /G /H /I /J /K /L /M /N /O
/P /Q /R /S /T /U /V /W /X /Y
/Z /bracketleft /backslash /bracketright /asciicircum /underscore /quoteleft /a /b /c
/d /e /f /g /h /i /j /k /l /m
/n /o /p /q /r /s /t /u /v /w
/x /y /z /braceleft /bar /braceright /asciitilde /.notdef /.notdef /.notdef
/.notdef /.notdef /.notdef /.notdef /.notdef /.notdef /.notdef /.notdef /.notdef /.notdef
/.notdef /.notdef /.notdef /.notdef /.notdef /.notdef /.notdef /.notdef /.notdef /.notdef
/.notdef /.notdef /.notdef /.notdef /.notdef /.notdef /.notdef /.notdef /.notdef /.notdef
/space /exclamdown /cent /sterling /currency /yen /brokenbar /section /dieresis /copyright
/ordfeminine /guillemotleft /logicalnot /hyphen /registered /macron /degree /plusminus /twosuperior /threesuperior
/acute /mu /paragraph /periodcentered /cedilla /onesuperior /ordmasculine /guillemotright /onequarter /onehalf
/threequarters /questiondown /Agrave /Aacute /Acircumflex /Atilde /Adieresis /Aring /AE /Ccedilla
/Egrave /Eacute /Ecircumflex /Edieresis /Igrave /Iacute /Icircumflex /Idieresis /Eth /Ntilde
/Ograve /Oacute /Ocircumflex /Otilde /Odieresis /multiply /Oslash /Ugrave /Uacute /Ucircumflex
/Udieresis /Yacute /Thorn /germandbls /agrave /aacute /acircumflex /atilde /adieresis /aring
/ae /ccedilla /egrave /eacute /ecircumflex /edieresis /igrave /iacute /icircumflex /idieresis
/eth /ntilde /ograve /oacute /ocircumflex /otilde /odieresis /divide /oslash /ugrave
/uacute /ucircumflex /udieresis /yacute /thorn /ydieresis] /isolatin1encoding exch def
/cp {closepath} bind def
/c {curveto} bind def
/f {fill} bind def
/a {arc} bind def
/ef {eofill} bind def
/ex {exch} bind def
/gr {grestore} bind def
/gs {gsave} bind def
/sa {save} bind def
/rs {restore} bind def
/l {lineto} bind def
/m {moveto} bind def
/rm {rmoveto} bind def
/n {newpath} bind def
/s {stroke} bind def
/sh {show} bind def
/slc {setlinecap} bind def
/slj {setlinejoin} bind def
/slw {setlinewidth} bind def
/srgb {setrgbcolor} bind def
/rot {rotate} bind def
/sc {scale} bind def
/sd {setdash} bind def
/ff {findfont} bind def
/sf {setfont} bind def
/scf {scalefont} bind def
/sw {stringwidth pop} bind def
/tr {translate} bind def

/ellipsedict 8 dict def
ellipsedict /mtrx matrix put
/ellipse
{ ellipsedict begin
   /endangle exch def
   /startangle exch def
   /yrad exch def
   /xrad exch def
   /y exch def
   /x exch def   /savematrix mtrx currentmatrix def
   x y tr xrad yrad sc
   0 0 1 startangle endangle arc
   savematrix setmatrix
   end
} def

/mergeprocs {
dup length
3 -1 roll
dup
length
dup
5 1 roll
3 -1 roll
add
array cvx
dup
3 -1 roll
0 exch
putinterval
dup
4 2 roll
putinterval
} bind def
/dpi_x 300 def
/dpi_y 300 def
/conicto {
    /to_y exch def
    /to_x exch def
    /conic_cntrl_y exch def
    /conic_cntrl_x exch def
    currentpoint
    /p0_y exch def
    /p0_x exch def
    /p1_x p0_x conic_cntrl_x p0_x sub 2 3 div mul add def
    /p1_y p0_y conic_cntrl_y p0_y sub 2 3 div mul add def
    /p2_x p1_x to_x p0_x sub 1 3 div mul add def
    /p2_y p1_y to_y p0_y sub 1 3 div mul add def
    p1_x p1_y p2_x p2_y to_x to_y curveto
} bind def
/start_ol { gsave 1.1 dpi_x div dup scale} bind def
/end_ol { closepath fill grestore } bind def
28.346000 -28.346000 scale
5.170000 -14.050000 translate
%%EndProlog


1.000000 1.000000 1.000000 srgb
n 0.000000 1.000000 m 0.000000 5.000000 l 10.000000 5.000000 l 10.000000 1.000000 l f
0.100000 slw
[] 0 sd
[] 0 sd
0 slj
0.000000 0.000000 0.000000 srgb
n 0.000000 1.000000 m 0.000000 5.000000 l 10.000000 5.000000 l 10.000000 1.000000 l cp s
1.000000 1.000000 1.000000 srgb
n 15.000000 1.000000 m 15.000000 5.000000 l 25.000000 5.000000 l 25.000000 1.000000 l f
0.100000 slw
[] 0 sd
[] 0 sd
0 slj
0.000000 0.000000 0.000000 srgb
n 15.000000 1.000000 m 15.000000 5.000000 l 25.000000 5.000000 l 25.000000 1.000000 l cp s
1.000000 1.000000 1.000000 srgb
n 0.000000 10.000000 m 0.000000 14.000000 l 25.000000 14.000000 l 25.000000 10.000000 l f
0.100000 slw
[] 0 sd
[] 0 sd
0 slj
0.000000 0.000000 0.000000 srgb
n 0.000000 10.000000 m 0.000000 14.000000 l 25.000000 14.000000 l 25.000000 10.000000 l cp s
1.000000 1.000000 1.000000 srgb
n 3.000000 9.500000 1.000000 0.500000 0 360 ellipse f
0.100000 slw
[] 0 sd
[] 0 sd
0.000000 0.000000 0.000000 srgb
n 3.000000 9.500000 1.000000 0.500000 0 360 ellipse cp s
1.000000 1.000000 1.000000 srgb
n 7.000000 5.500000 1.000000 0.500000 0 360 ellipse f
0.100000 slw
[] 0 sd
[] 0 sd
0.000000 0.000000 0.000000 srgb
n 7.000000 5.500000 1.000000 0.500000 0 360 ellipse cp s
1.000000 1.000000 1.000000 srgb
n 22.000000 5.500000 1.000000 0.500000 0 360 ellipse f
0.100000 slw
[] 0 sd
[] 0 sd
0.000000 0.000000 0.000000 srgb
n 22.000000 5.500000 1.000000 0.500000 0 360 ellipse cp s
1.000000 1.000000 1.000000 srgb
n 18.000000 9.500000 1.000000 0.500000 0 360 ellipse f
0.100000 slw
[] 0 sd
[] 0 sd
0.000000 0.000000 0.000000 srgb
n 18.000000 9.500000 1.000000 0.500000 0 360 ellipse cp s
0.100000 slw
[] 0 sd
[] 0 sd
0 slc
n 3.000000 5.000000 m 3.000000 8.513197 l s
[] 0 sd
0 slj
0 slc
n 3.000000 8.888197 m 2.750000 8.388197 l 3.000000 8.513197 l 3.250000 8.388197 l ef
n 3.000000 8.888197 m 2.750000 8.388197 l 3.000000 8.513197 l 3.250000 8.388197 l cp s
0.100000 slw
[] 0 sd
[] 0 sd
0 slc
n 18.000000 5.000000 m 18.000000 8.513197 l s
[] 0 sd
0 slj
0 slc
n 18.000000 8.888197 m 17.750000 8.388197 l 18.000000 8.513197 l 18.250000 8.388197 l ef
n 18.000000 8.888197 m 17.750000 8.388197 l 18.000000 8.513197 l 18.250000 8.388197 l cp s
0.100000 slw
[] 0 sd
[] 0 sd
0 slc
n 7.000000 10.000000 m 7.000000 6.486803 l s
[] 0 sd
0 slj
0 slc
n 7.000000 6.111803 m 7.250000 6.611803 l 7.000000 6.486803 l 6.750000 6.611803 l ef
n 7.000000 6.111803 m 7.250000 6.611803 l 7.000000 6.486803 l 6.750000 6.611803 l cp s
0.100000 slw
[] 0 sd
[] 0 sd
0 slc
n 22.000000 10.000000 m 22.000000 6.486803 l s
[] 0 sd
0 slj
0 slc
n 22.000000 6.111803 m 22.250000 6.611803 l 22.000000 6.486803 l 21.750000 6.611803 l ef
n 22.000000 6.111803 m 22.250000 6.611803 l 22.000000 6.486803 l 21.750000 6.611803 l cp s
gsave 16.000000 2.000000 translate 0.035278 -0.035278 scale
start_ol
2048 2752 moveto
2048 2368 lineto
1825 2465 1627 2512 conicto
1429 2560 1244 2560 conicto
924 2560 750 2440 conicto
576 2320 576 2099 conicto
577 1921 702 1826 conicto
828 1732 1177 1666 conicto
1435 1620 lineto
1849 1540 2045 1333 conicto
2241 1126 2240 776 conicto
2240 363 1964 149 conicto
1688 -64 1154 -64 conicto
953 -64 726 -15 conicto
499 33 256 128 conicto
256 512 lineto
501 385 736 320 conicto
972 256 1200 256 conicto
1545 256 1732 384 conicto
1920 513 1920 751 conicto
1920 959 1777 1076 conicto
1635 1193 1310 1252 conicto
1051 1298 lineto
631 1383 443 1565 conicto
256 1748 256 2072 conicto
256 2448 516 2664 conicto
776 2880 1233 2880 conicto
1429 2880 1632 2848 conicto
1835 2816 2048 2752 conicto
end_ol grestore 
gsave 16.322196 2.000000 translate 0.035278 -0.035278 scale
start_ol
320 830 moveto
320 2112 lineto
640 2112 lineto
640 844 lineto
640 550 758 403 conicto
877 256 1113 256 conicto
1398 256 1563 432 conicto
1728 608 1728 912 conicto
1728 2112 lineto
2048 2112 lineto
2048 0 lineto
1728 0 lineto
1728 320 lineto
1603 125 1437 30 conicto
1272 -64 1054 -64 conicto
693 -64 506 164 conicto
320 392 320 830 conicto
1173 2176 moveto
1173 2176 lineto
end_ol grestore 
gsave 16.644393 2.000000 translate 0.035278 -0.035278 scale
start_ol
1856 1056 moveto
1856 1430 1694 1643 conicto
1532 1856 1248 1856 conicto
964 1856 802 1643 conicto
640 1430 640 1056 conicto
640 682 802 469 conicto
964 256 1248 256 conicto
1532 256 1694 469 conicto
1856 682 1856 1056 conicto
640 1792 moveto
749 1987 915 2081 conicto
1082 2176 1313 2176 conicto
1697 2176 1936 1867 conicto
2176 1559 2176 1056 conicto
2176 553 1936 244 conicto
1697 -64 1313 -64 conicto
1082 -64 915 30 conicto
749 125 640 320 conicto
640 0 lineto
320 0 lineto
320 2944 lineto
640 2944 lineto
640 1792 lineto
end_ol grestore 
gsave 16.966589 2.000000 translate 0.035278 -0.035278 scale
start_ol
1408 2944 moveto
1408 2624 lineto
1103 2624 lineto
915 2624 841 2551 conicto
768 2479 768 2291 conicto
768 2112 lineto
1344 2112 lineto
1344 1792 lineto
768 1792 lineto
768 0 lineto
448 0 lineto
448 1792 lineto
128 1792 lineto
128 2112 lineto
448 2112 lineto
448 2253 lineto
448 2614 605 2779 conicto
763 2944 1106 2944 conicto
1408 2944 lineto
end_ol grestore 
gsave 17.146415 2.000000 translate 0.035278 -0.035278 scale
start_ol
1536 1792 moveto
1477 1825 1407 1840 conicto
1338 1856 1254 1856 conicto
958 1856 799 1665 conicto
640 1475 640 1118 conicto
640 0 lineto
320 0 lineto
320 2112 lineto
640 2112 lineto
640 1792 lineto
750 1987 927 2081 conicto
1104 2176 1357 2176 conicto
1393 2176 1437 2176 conicto
1481 2176 1534 2176 conicto
1536 1792 lineto
end_ol grestore 
gsave 17.356213 2.000000 translate 0.035278 -0.035278 scale
start_ol
1299 1024 moveto
855 1024 683 934 conicto
512 845 512 629 conicto
512 458 640 357 conicto
769 256 990 256 conicto
1295 256 1479 446 conicto
1664 636 1664 951 conicto
1664 1024 lineto
1299 1024 lineto
1984 1193 moveto
1984 0 lineto
1664 0 lineto
1664 320 lineto
1542 123 1360 29 conicto
1179 -64 916 -64 conicto
584 -64 388 120 conicto
192 305 192 615 conicto
192 977 432 1160 conicto
673 1344 1150 1344 conicto
1664 1344 lineto
1664 1374 lineto
1664 1604 1499 1730 conicto
1334 1856 1035 1856 conicto
846 1856 666 1808 conicto
486 1760 320 1664 conicto
320 1984 lineto
515 2080 697 2128 conicto
880 2176 1054 2176 conicto
1522 2176 1753 1932 conicto
1984 1688 1984 1193 conicto
end_ol grestore 
gsave 17.668421 2.000000 translate 0.035278 -0.035278 scale
start_ol
1994 1714 moveto
2127 1951 2313 2063 conicto
2499 2176 2750 2176 conicto
3089 2176 3272 1943 conicto
3456 1710 3456 1281 conicto
3456 0 lineto
3136 0 lineto
3136 1269 lineto
3136 1567 3021 1711 conicto
2906 1856 2671 1856 conicto
2382 1856 2215 1679 conicto
2048 1503 2048 1199 conicto
2048 0 lineto
1728 0 lineto
1728 1269 lineto
1728 1569 1613 1712 conicto
1498 1856 1259 1856 conicto
974 1856 807 1679 conicto
640 1502 640 1199 conicto
640 0 lineto
320 0 lineto
320 2112 lineto
640 2112 lineto
640 1792 lineto
763 1989 934 2082 conicto
1106 2176 1342 2176 conicto
1580 2176 1747 2057 conicto
1914 1939 1994 1714 conicto
end_ol grestore 
gsave 18.162952 2.000000 translate 0.035278 -0.035278 scale
start_ol
2112 1224 moveto
2112 1024 lineto
512 1024 lineto
535 649 731 452 conicto
927 256 1277 256 conicto
1480 256 1670 304 conicto
1861 352 2048 448 conicto
2048 128 lineto
1863 34 1669 -15 conicto
1475 -64 1276 -64 conicto
776 -64 484 233 conicto
192 530 192 1037 conicto
192 1561 466 1868 conicto
741 2176 1207 2176 conicto
1626 2176 1869 1920 conicto
2112 1664 2112 1224 conicto
1792 1344 moveto
1788 1578 1628 1717 conicto
1469 1856 1206 1856 conicto
909 1856 730 1721 conicto
551 1587 524 1342 conicto
1792 1344 lineto
end_ol grestore 
gsave 1.000000 11.000000 translate 0.035278 -0.035278 scale
start_ol
2048 2752 moveto
2048 2368 lineto
1825 2465 1627 2512 conicto
1429 2560 1244 2560 conicto
924 2560 750 2440 conicto
576 2320 576 2099 conicto
577 1921 702 1826 conicto
828 1732 1177 1666 conicto
1435 1620 lineto
1849 1540 2045 1333 conicto
2241 1126 2240 776 conicto
2240 363 1964 149 conicto
1688 -64 1154 -64 conicto
953 -64 726 -15 conicto
499 33 256 128 conicto
256 512 lineto
501 385 736 320 conicto
972 256 1200 256 conicto
1545 256 1732 384 conicto
1920 513 1920 751 conicto
1920 959 1777 1076 conicto
1635 1193 1310 1252 conicto
1051 1298 lineto
631 1383 443 1565 conicto
256 1748 256 2072 conicto
256 2448 516 2664 conicto
776 2880 1233 2880 conicto
1429 2880 1632 2848 conicto
1835 2816 2048 2752 conicto
end_ol grestore 
gsave 1.322196 11.000000 translate 0.035278 -0.035278 scale
start_ol
1856 1984 moveto
1856 1664 lineto
1705 1760 1552 1808 conicto
1400 1856 1244 1856 conicto
897 1856 704 1646 conicto
512 1436 512 1056 conicto
512 676 704 466 conicto
897 256 1244 256 conicto
1400 256 1552 304 conicto
1705 352 1856 448 conicto
1856 128 lineto
1711 32 1556 -16 conicto
1401 -64 1227 -64 conicto
752 -64 472 239 conicto
192 542 192 1056 conicto
192 1578 474 1877 conicto
757 2176 1249 2176 conicto
1409 2176 1561 2128 conicto
1713 2080 1856 1984 conicto
end_ol grestore 
gsave 1.601927 11.000000 translate 0.035278 -0.035278 scale
start_ol
2048 1281 moveto
2048 0 lineto
1728 0 lineto
1728 1269 lineto
1728 1563 1609 1709 conicto
1491 1856 1254 1856 conicto
969 1856 804 1679 conicto
640 1503 640 1199 conicto
640 0 lineto
320 0 lineto
320 2944 lineto
640 2944 lineto
640 1792 lineto
763 1985 930 2080 conicto
1098 2176 1317 2176 conicto
1678 2176 1863 1949 conicto
2048 1722 2048 1281 conicto
end_ol grestore 
gsave 1.924123 11.000000 translate 0.035278 -0.035278 scale
start_ol
2112 1224 moveto
2112 1024 lineto
512 1024 lineto
535 649 731 452 conicto
927 256 1277 256 conicto
1480 256 1670 304 conicto
1861 352 2048 448 conicto
2048 128 lineto
1863 34 1669 -15 conicto
1475 -64 1276 -64 conicto
776 -64 484 233 conicto
192 530 192 1037 conicto
192 1561 466 1868 conicto
741 2176 1207 2176 conicto
1626 2176 1869 1920 conicto
2112 1664 2112 1224 conicto
1792 1344 moveto
1788 1578 1628 1717 conicto
1469 1856 1206 1856 conicto
909 1856 730 1721 conicto
551 1587 524 1342 conicto
1792 1344 lineto
end_ol grestore 
gsave 2.236332 11.000000 translate 0.035278 -0.035278 scale
start_ol
1728 1792 moveto
1728 2944 lineto
2048 2944 lineto
2048 0 lineto
1728 0 lineto
1728 320 lineto
1619 125 1452 30 conicto
1286 -64 1053 -64 conicto
671 -64 431 244 conicto
192 553 192 1056 conicto
192 1559 431 1867 conicto
671 2176 1053 2176 conicto
1286 2176 1452 2081 conicto
1619 1987 1728 1792 conicto
512 1056 moveto
512 682 674 469 conicto
836 256 1119 256 conicto
1402 256 1565 469 conicto
1728 682 1728 1056 conicto
1728 1430 1565 1643 conicto
1402 1856 1119 1856 conicto
836 1856 674 1643 conicto
512 1430 512 1056 conicto
end_ol grestore 
gsave 2.558528 11.000000 translate 0.035278 -0.035278 scale
start_ol
320 830 moveto
320 2112 lineto
640 2112 lineto
640 844 lineto
640 550 758 403 conicto
877 256 1113 256 conicto
1398 256 1563 432 conicto
1728 608 1728 912 conicto
1728 2112 lineto
2048 2112 lineto
2048 0 lineto
1728 0 lineto
1728 320 lineto
1603 125 1437 30 conicto
1272 -64 1054 -64 conicto
693 -64 506 164 conicto
320 392 320 830 conicto
1173 2176 moveto
1173 2176 lineto
end_ol grestore 
gsave 2.880724 11.000000 translate 0.035278 -0.035278 scale
start_ol
320 2944 moveto
640 2944 lineto
640 0 lineto
320 0 lineto
320 2944 lineto
end_ol grestore 
gsave 3.020590 11.000000 translate 0.035278 -0.035278 scale
start_ol
2112 1224 moveto
2112 1024 lineto
512 1024 lineto
535 649 731 452 conicto
927 256 1277 256 conicto
1480 256 1670 304 conicto
1861 352 2048 448 conicto
2048 128 lineto
1863 34 1669 -15 conicto
1475 -64 1276 -64 conicto
776 -64 484 233 conicto
192 530 192 1037 conicto
192 1561 466 1868 conicto
741 2176 1207 2176 conicto
1626 2176 1869 1920 conicto
2112 1664 2112 1224 conicto
1792 1344 moveto
1788 1578 1628 1717 conicto
1469 1856 1206 1856 conicto
909 1856 730 1721 conicto
551 1587 524 1342 conicto
1792 1344 lineto
end_ol grestore 
gsave 3.332798 11.000000 translate 0.035278 -0.035278 scale
start_ol
1536 1792 moveto
1477 1825 1407 1840 conicto
1338 1856 1254 1856 conicto
958 1856 799 1665 conicto
640 1475 640 1118 conicto
640 0 lineto
320 0 lineto
320 2112 lineto
640 2112 lineto
640 1792 lineto
750 1987 927 2081 conicto
1104 2176 1357 2176 conicto
1393 2176 1437 2176 conicto
1481 2176 1534 2176 conicto
1536 1792 lineto
end_ol grestore 
gsave 1.000000 2.000000 translate 0.035278 -0.035278 scale
start_ol
2432 2624 moveto
2432 2240 lineto
2234 2401 2010 2480 conicto
1787 2560 1535 2560 conicto
1039 2560 775 2263 conicto
512 1967 512 1407 conicto
512 849 775 552 conicto
1039 256 1535 256 conicto
1787 256 2010 335 conicto
2234 415 2432 576 conicto
2432 192 lineto
2235 64 2014 0 conicto
1794 -64 1548 -64 conicto
918 -64 555 330 conicto
192 725 192 1407 conicto
192 2091 555 2485 conicto
918 2880 1548 2880 conicto
1798 2880 2018 2816 conicto
2239 2752 2432 2624 conicto
end_ol grestore 
gsave 1.354666 2.000000 translate 0.035278 -0.035278 scale
start_ol
1153 1856 moveto
857 1856 684 1642 conicto
512 1428 512 1056 conicto
512 684 683 470 conicto
855 256 1153 256 conicto
1447 256 1619 471 conicto
1792 686 1792 1056 conicto
1792 1425 1619 1640 conicto
1447 1856 1153 1856 conicto
1152 2176 moveto
1600 2176 1856 1879 conicto
2112 1582 2112 1056 conicto
2112 532 1856 234 conicto
1600 -64 1152 -64 conicto
702 -64 447 234 conicto
192 532 192 1056 conicto
192 1582 447 1879 conicto
702 2176 1152 2176 conicto
end_ol grestore 
gsave 1.664369 2.000000 translate 0.035278 -0.035278 scale
start_ol
2048 1281 moveto
2048 0 lineto
1728 0 lineto
1728 1269 lineto
1728 1563 1609 1709 conicto
1491 1856 1254 1856 conicto
969 1856 804 1679 conicto
640 1503 640 1199 conicto
640 0 lineto
320 0 lineto
320 2112 lineto
640 2112 lineto
640 1792 lineto
763 1985 930 2080 conicto
1098 2176 1317 2176 conicto
1678 2176 1863 1949 conicto
2048 1722 2048 1281 conicto
end_ol grestore 
gsave 1.986565 2.000000 translate 0.035278 -0.035278 scale
start_ol
640 2688 moveto
640 2112 lineto
1344 2112 lineto
1344 1792 lineto
640 1792 lineto
640 705 lineto
640 460 709 390 conicto
779 320 993 320 conicto
1344 320 lineto
1344 0 lineto
993 0 lineto
611 0 465 152 conicto
320 304 320 705 conicto
320 1792 lineto
64 1792 lineto
64 2112 lineto
320 2112 lineto
320 2688 lineto
640 2688 lineto
end_ol grestore 
gsave 2.186375 2.000000 translate 0.035278 -0.035278 scale
start_ol
1536 1792 moveto
1477 1825 1407 1840 conicto
1338 1856 1254 1856 conicto
958 1856 799 1665 conicto
640 1475 640 1118 conicto
640 0 lineto
320 0 lineto
320 2112 lineto
640 2112 lineto
640 1792 lineto
750 1987 927 2081 conicto
1104 2176 1357 2176 conicto
1393 2176 1437 2176 conicto
1481 2176 1534 2176 conicto
1536 1792 lineto
end_ol grestore 
gsave 2.386185 2.000000 translate 0.035278 -0.035278 scale
start_ol
1153 1856 moveto
857 1856 684 1642 conicto
512 1428 512 1056 conicto
512 684 683 470 conicto
855 256 1153 256 conicto
1447 256 1619 471 conicto
1792 686 1792 1056 conicto
1792 1425 1619 1640 conicto
1447 1856 1153 1856 conicto
1152 2176 moveto
1600 2176 1856 1879 conicto
2112 1582 2112 1056 conicto
2112 532 1856 234 conicto
1600 -64 1152 -64 conicto
702 -64 447 234 conicto
192 532 192 1056 conicto
192 1582 447 1879 conicto
702 2176 1152 2176 conicto
end_ol grestore 
gsave 2.695888 2.000000 translate 0.035278 -0.035278 scale
start_ol
320 2944 moveto
640 2944 lineto
640 0 lineto
320 0 lineto
320 2944 lineto
end_ol grestore 
gsave 23.400000 5.750000 translate 0.035278 -0.035278 scale
start_ol
832 3520 moveto
2880 3520 lineto
2801 3136 lineto
1234 3136 lineto
1028 2112 lineto
2445 2112 lineto
2366 1728 lineto
949 1728 lineto
614 0 lineto
128 0 lineto
832 3520 lineto
end_ol grestore 
gsave 23.767151 5.750000 translate 0.035278 -0.035278 scale
start_ol
2304 3712 moveto
2235 3328 lineto
1820 3328 lineto
1583 3328 1475 3238 conicto
1368 3149 1316 2912 conicto
1269 2688 lineto
1985 2688 lineto
1921 2368 lineto
1205 2368 lineto
756 0 lineto
320 0 lineto
771 2368 lineto
355 2368 lineto
417 2688 lineto
832 2688 lineto
867 2864 lineto
957 3333 1182 3522 conicto
1408 3712 1893 3712 conicto
2304 3712 lineto
end_ol grestore 
gsave 23.991939 5.750000 translate 0.035278 -0.035278 scale
start_ol
2921 3392 moveto
2828 2944 lineto
2589 3071 2353 3135 conicto
2117 3200 1896 3200 conicto
1467 3200 1213 3017 conicto
960 2835 960 2531 conicto
960 2365 1055 2276 conicto
1150 2187 1543 2085 conicto
1833 2016 lineto
2313 1890 2500 1695 conicto
2688 1501 2688 1151 conicto
2688 613 2274 274 conicto
1860 -64 1172 -64 conicto
889 -64 604 0 conicto
319 63 32 192 conicto
129 704 lineto
393 513 657 416 conicto
922 320 1186 320 conicto
1635 320 1905 523 conicto
2176 727 2176 1054 conicto
2176 1272 2067 1385 conicto
1958 1498 1598 1590 conicto
1308 1662 lineto
811 1787 629 1950 conicto
448 2114 448 2408 conicto
448 2924 856 3254 conicto
1264 3584 1918 3584 conicto
2172 3584 2421 3536 conicto
2671 3488 2921 3392 conicto
end_ol grestore 
gsave 24.399058 5.750000 translate 0.035278 -0.035278 scale
start_ol
2560 2560 moveto
2473 2112 lineto
2317 2240 2141 2304 conicto
1965 2368 1776 2368 conicto
1568 2368 1380 2294 conicto
1193 2221 1065 2086 conicto
862 1880 751 1602 conicto
640 1325 640 1029 conicto
640 671 818 495 conicto
997 320 1360 320 conicto
1540 320 1741 368 conicto
1943 416 2163 512 conicto
2081 64 lineto
1892 0 1693 -32 conicto
1494 -64 1284 -64 conicto
758 -64 475 203 conicto
192 470 192 966 conicto
192 1382 339 1733 conicto
487 2084 777 2364 conicto
975 2556 1241 2654 conicto
1508 2752 1824 2752 conicto
2008 2752 2189 2704 conicto
2371 2656 2560 2560 conicto
end_ol grestore 
gsave 24.751227 5.750000 translate 0.035278 -0.035278 scale
start_ol
2713 1622 moveto
2432 0 lineto
1985 0 lineto
2301 1605 lineto
2323 1718 2335 1804 conicto
2347 1891 2347 1941 conicto
2347 2142 2219 2255 conicto
2091 2368 1861 2368 conicto
1503 2368 1240 2128 conicto
978 1888 901 1490 conicto
620 0 lineto
192 0 lineto
896 3712 lineto
1341 3712 lineto
1053 2265 lineto
1218 2491 1476 2621 conicto
1734 2752 2017 2752 conicto
2367 2752 2559 2560 conicto
2752 2368 2752 2020 conicto
2752 1934 2742 1835 conicto
2733 1737 2713 1622 conicto
end_ol grestore 
gsave 25.155841 5.750000 translate 0.035278 -0.035278 scale
start_ol
2290 1600 moveto
2297 1637 2300 1676 conicto
2304 1716 2304 1755 conicto
2304 2039 2137 2203 conicto
1970 2368 1682 2368 conicto
1362 2368 1116 2167 conicto
871 1967 745 1597 conicto
2290 1600 lineto
2692 1280 moveto
663 1280 lineto
649 1186 644 1132 conicto
640 1078 640 1038 conicto
640 695 840 507 conicto
1041 320 1407 320 conicto
1689 320 1940 385 conicto
2191 450 2407 576 conicto
2319 128 lineto
2086 32 1837 -16 conicto
1589 -64 1332 -64 conicto
783 -64 487 203 conicto
192 470 192 961 conicto
192 1380 341 1740 conicto
490 2101 778 2383 conicto
964 2560 1220 2656 conicto
1476 2752 1764 2752 conicto
2216 2752 2484 2486 conicto
2752 2220 2752 1772 conicto
2752 1665 2737 1542 conicto
2722 1420 2692 1280 conicto
end_ol grestore 
gsave 25.550467 5.750000 translate 0.035278 -0.035278 scale
start_ol
2008 421 moveto
1832 182 1591 59 conicto
1350 -64 1057 -64 conicto
657 -64 424 210 conicto
192 484 192 961 conicto
192 1358 333 1718 conicto
474 2079 741 2364 conicto
917 2553 1139 2652 conicto
1361 2752 1604 2752 conicto
1862 2752 2059 2623 conicto
2256 2494 2363 2253 conicto
2642 3712 lineto
3072 3712 lineto
2368 0 lineto
1925 0 lineto
2008 421 lineto
640 1043 moveto
640 701 797 510 conicto
954 320 1232 320 conicto
1438 320 1614 417 conicto
1790 515 1925 706 conicto
2066 904 2147 1163 conicto
2229 1422 2229 1674 conicto
2229 2001 2072 2184 conicto
1915 2368 1639 2368 conicto
1431 2368 1251 2271 conicto
1071 2175 944 1994 conicto
805 1798 722 1539 conicto
640 1280 640 1043 conicto
end_ol grestore 
gsave 25.957587 5.750000 translate 0.035278 -0.035278 scale
start_ol
2921 3392 moveto
2828 2944 lineto
2589 3071 2353 3135 conicto
2117 3200 1896 3200 conicto
1467 3200 1213 3017 conicto
960 2835 960 2531 conicto
960 2365 1055 2276 conicto
1150 2187 1543 2085 conicto
1833 2016 lineto
2313 1890 2500 1695 conicto
2688 1501 2688 1151 conicto
2688 613 2274 274 conicto
1860 -64 1172 -64 conicto
889 -64 604 0 conicto
319 63 32 192 conicto
129 704 lineto
393 513 657 416 conicto
922 320 1186 320 conicto
1635 320 1905 523 conicto
2176 727 2176 1054 conicto
2176 1272 2067 1385 conicto
1958 1498 1598 1590 conicto
1308 1662 lineto
811 1787 629 1950 conicto
448 2114 448 2408 conicto
448 2924 856 3254 conicto
1264 3584 1918 3584 conicto
2172 3584 2421 3536 conicto
2671 3488 2921 3392 conicto
end_ol grestore 
gsave 26.364706 5.750000 translate 0.035278 -0.035278 scale
start_ol
2574 1513 moveto
2259 0 lineto
1829 0 lineto
1907 421 lineto
1720 177 1480 56 conicto
1240 -64 947 -64 conicto
616 -64 404 141 conicto
192 347 192 669 conicto
192 1129 555 1396 conicto
918 1664 1555 1664 conicto
2144 1664 lineto
2167 1795 lineto
2172 1815 2174 1838 conicto
2176 1861 2176 1910 conicto
2176 2127 2009 2247 conicto
1843 2368 1541 2368 conicto
1334 2368 1117 2320 conicto
900 2272 670 2176 conicto
743 2560 lineto
987 2656 1221 2704 conicto
1455 2752 1673 2752 conicto
2138 2752 2381 2542 conicto
2624 2332 2624 1933 conicto
2624 1852 2611 1743 conicto
2599 1635 2574 1513 conicto
2082 1344 moveto
1659 1344 lineto
1139 1344 889 1202 conicto
640 1060 640 762 conicto
640 555 767 437 conicto
895 320 1120 320 conicto
1465 320 1722 572 conicto
1980 825 2063 1248 conicto
2082 1344 lineto
end_ol grestore 
gsave 26.756835 5.750000 translate 0.035278 -0.035278 scale
start_ol
2432 1653 moveto
2432 2000 2278 2184 conicto
2125 2368 1837 2368 conicto
1641 2368 1462 2269 conicto
1284 2170 1145 1981 conicto
1008 1795 926 1530 conicto
845 1266 845 1007 conicto
845 676 998 498 conicto
1152 320 1435 320 conicto
1643 320 1821 416 conicto
2000 513 2128 698 conicto
2264 891 2348 1153 conicto
2432 1415 2432 1653 conicto
1066 2267 moveto
1243 2506 1482 2629 conicto
1722 2752 2016 2752 conicto
2426 2752 2653 2482 conicto
2880 2213 2880 1727 conicto
2880 1330 2739 969 conicto
2598 609 2333 324 conicto
2156 135 1934 35 conicto
1712 -64 1466 -64 conicto
1182 -64 988 58 conicto
795 180 699 421 conicto
425 -1024 lineto
0 -1024 lineto
704 2688 lineto
1145 2688 lineto
1066 2267 lineto
end_ol grestore 
gsave 27.163954 5.750000 translate 0.035278 -0.035278 scale
start_ol
751 3520 moveto
1234 3520 lineto
816 1383 lineto
790 1239 779 1146 conicto
768 1053 768 982 conicto
768 657 951 488 conicto
1134 320 1488 320 conicto
1946 320 2201 570 conicto
2457 820 2566 1383 conicto
2984 3520 lineto
3466 3520 lineto
3039 1324 lineto
2898 614 2502 275 conicto
2107 -64 1419 -64 conicto
882 -64 569 200 conicto
256 465 256 919 conicto
256 1002 268 1104 conicto
281 1206 306 1324 conicto
751 3520 lineto
end_ol grestore 
gsave 27.631010 5.750000 translate 0.035278 -0.035278 scale
start_ol
2444 2560 moveto
2361 2176 lineto
2192 2272 2004 2320 conicto
1817 2368 1618 2368 conicto
1283 2368 1089 2251 conicto
896 2134 896 1934 conicto
896 1700 1337 1575 conicto
1371 1566 1387 1561 conicto
1521 1519 lineto
1952 1397 2096 1263 conicto
2240 1129 2240 897 conicto
2240 472 1912 204 conicto
1585 -64 1054 -64 conicto
842 -64 609 -17 conicto
377 29 97 128 conicto
182 576 lineto
422 450 655 385 conicto
888 320 1101 320 conicto
1408 320 1600 457 conicto
1792 595 1792 805 conicto
1792 1032 1287 1172 conicto
1244 1184 lineto
1101 1221 lineto
762 1309 605 1453 conicto
448 1598 448 1823 conicto
448 2250 764 2501 conicto
1081 2752 1625 2752 conicto
1839 2752 2042 2704 conicto
2246 2656 2444 2560 conicto
end_ol grestore 
gsave 27.963194 5.750000 translate 0.035278 -0.035278 scale
start_ol
2290 1600 moveto
2297 1637 2300 1676 conicto
2304 1716 2304 1755 conicto
2304 2039 2137 2203 conicto
1970 2368 1682 2368 conicto
1362 2368 1116 2167 conicto
871 1967 745 1597 conicto
2290 1600 lineto
2692 1280 moveto
663 1280 lineto
649 1186 644 1132 conicto
640 1078 640 1038 conicto
640 695 840 507 conicto
1041 320 1407 320 conicto
1689 320 1940 385 conicto
2191 450 2407 576 conicto
2319 128 lineto
2086 32 1837 -16 conicto
1589 -64 1332 -64 conicto
783 -64 487 203 conicto
192 470 192 961 conicto
192 1380 341 1740 conicto
490 2101 778 2383 conicto
964 2560 1220 2656 conicto
1476 2752 1764 2752 conicto
2216 2752 2484 2486 conicto
2752 2220 2752 1772 conicto
2752 1665 2737 1542 conicto
2722 1420 2692 1280 conicto
end_ol grestore 
gsave 28.357820 5.750000 translate 0.035278 -0.035278 scale
start_ol
2219 2240 moveto
2151 2302 2063 2335 conicto
1975 2368 1876 2368 conicto
1518 2368 1250 2090 conicto
982 1812 894 1346 conicto
622 0 lineto
192 0 lineto
704 2688 lineto
1152 2688 lineto
1067 2231 lineto
1245 2482 1492 2617 conicto
1739 2752 2019 2752 conicto
2092 2752 2162 2737 conicto
2233 2722 2304 2688 conicto
2219 2240 lineto
end_ol grestore 
gsave 8.390000 5.730000 translate 0.035278 -0.035278 scale
start_ol
832 3520 moveto
2880 3520 lineto
2801 3136 lineto
1234 3136 lineto
1028 2112 lineto
2445 2112 lineto
2366 1728 lineto
949 1728 lineto
614 0 lineto
128 0 lineto
832 3520 lineto
end_ol grestore 
gsave 8.757151 5.730000 translate 0.035278 -0.035278 scale
start_ol
2304 3712 moveto
2235 3328 lineto
1820 3328 lineto
1583 3328 1475 3238 conicto
1368 3149 1316 2912 conicto
1269 2688 lineto
1985 2688 lineto
1921 2368 lineto
1205 2368 lineto
756 0 lineto
320 0 lineto
771 2368 lineto
355 2368 lineto
417 2688 lineto
832 2688 lineto
867 2864 lineto
957 3333 1182 3522 conicto
1408 3712 1893 3712 conicto
2304 3712 lineto
end_ol grestore 
gsave 8.981939 5.730000 translate 0.035278 -0.035278 scale
start_ol
832 3520 moveto
1536 3520 lineto
1940 1171 lineto
3282 3520 lineto
4032 3520 lineto
3328 0 lineto
2873 0 lineto
3468 3090 lineto
2102 704 lineto
1645 704 lineto
1203 3100 lineto
605 0 lineto
128 0 lineto
832 3520 lineto
end_ol grestore 
gsave 9.533918 5.730000 translate 0.035278 -0.035278 scale
start_ol
2574 1513 moveto
2259 0 lineto
1829 0 lineto
1907 421 lineto
1720 177 1480 56 conicto
1240 -64 947 -64 conicto
616 -64 404 141 conicto
192 347 192 669 conicto
192 1129 555 1396 conicto
918 1664 1555 1664 conicto
2144 1664 lineto
2167 1795 lineto
2172 1815 2174 1838 conicto
2176 1861 2176 1910 conicto
2176 2127 2009 2247 conicto
1843 2368 1541 2368 conicto
1334 2368 1117 2320 conicto
900 2272 670 2176 conicto
743 2560 lineto
987 2656 1221 2704 conicto
1455 2752 1673 2752 conicto
2138 2752 2381 2542 conicto
2624 2332 2624 1933 conicto
2624 1852 2611 1743 conicto
2599 1635 2574 1513 conicto
2082 1344 moveto
1659 1344 lineto
1139 1344 889 1202 conicto
640 1060 640 762 conicto
640 555 767 437 conicto
895 320 1120 320 conicto
1465 320 1722 572 conicto
1980 825 2063 1248 conicto
2082 1344 lineto
end_ol grestore 
gsave 9.926047 5.730000 translate 0.035278 -0.035278 scale
start_ol
2560 2560 moveto
2473 2112 lineto
2317 2240 2141 2304 conicto
1965 2368 1776 2368 conicto
1568 2368 1380 2294 conicto
1193 2221 1065 2086 conicto
862 1880 751 1602 conicto
640 1325 640 1029 conicto
640 671 818 495 conicto
997 320 1360 320 conicto
1540 320 1741 368 conicto
1943 416 2163 512 conicto
2081 64 lineto
1892 0 1693 -32 conicto
1494 -64 1284 -64 conicto
758 -64 475 203 conicto
192 470 192 966 conicto
192 1382 339 1733 conicto
487 2084 777 2364 conicto
975 2556 1241 2654 conicto
1508 2752 1824 2752 conicto
2008 2752 2189 2704 conicto
2371 2656 2560 2560 conicto
end_ol grestore 
gsave 10.278215 5.730000 translate 0.035278 -0.035278 scale
start_ol
3392 3264 moveto
3294 2752 lineto
3064 2980 2807 3090 conicto
2550 3200 2251 3200 conicto
1842 3200 1532 3006 conicto
1223 2813 998 2417 conicto
855 2162 779 1878 conicto
704 1594 704 1306 conicto
704 825 956 572 conicto
1209 320 1689 320 conicto
2022 320 2328 432 conicto
2634 544 2923 768 conicto
2811 192 lineto
2526 65 2235 0 conicto
1944 -64 1652 -64 conicto
965 -64 578 303 conicto
192 671 192 1325 conicto
192 1745 339 2150 conicto
486 2555 762 2889 conicto
1054 3245 1428 3414 conicto
1803 3584 2301 3584 conicto
2607 3584 2881 3504 conicto
3155 3424 3392 3264 conicto
end_ol grestore 
gsave 10.725295 5.730000 translate 0.035278 -0.035278 scale
start_ol
2444 2560 moveto
2361 2176 lineto
2192 2272 2004 2320 conicto
1817 2368 1618 2368 conicto
1283 2368 1089 2251 conicto
896 2134 896 1934 conicto
896 1700 1337 1575 conicto
1371 1566 1387 1561 conicto
1521 1519 lineto
1952 1397 2096 1263 conicto
2240 1129 2240 897 conicto
2240 472 1912 204 conicto
1585 -64 1054 -64 conicto
842 -64 609 -17 conicto
377 29 97 128 conicto
182 576 lineto
422 450 655 385 conicto
888 320 1101 320 conicto
1408 320 1600 457 conicto
1792 595 1792 805 conicto
1792 1032 1287 1172 conicto
1244 1184 lineto
1101 1221 lineto
762 1309 605 1453 conicto
448 1598 448 1823 conicto
448 2250 764 2501 conicto
1081 2752 1625 2752 conicto
1839 2752 2042 2704 conicto
2246 2656 2444 2560 conicto
end_ol grestore 
gsave 11.057480 5.730000 translate 0.035278 -0.035278 scale
start_ol
2560 2560 moveto
2473 2112 lineto
2317 2240 2141 2304 conicto
1965 2368 1776 2368 conicto
1568 2368 1380 2294 conicto
1193 2221 1065 2086 conicto
862 1880 751 1602 conicto
640 1325 640 1029 conicto
640 671 818 495 conicto
997 320 1360 320 conicto
1540 320 1741 368 conicto
1943 416 2163 512 conicto
2081 64 lineto
1892 0 1693 -32 conicto
1494 -64 1284 -64 conicto
758 -64 475 203 conicto
192 470 192 966 conicto
192 1382 339 1733 conicto
487 2084 777 2364 conicto
975 2556 1241 2654 conicto
1508 2752 1824 2752 conicto
2008 2752 2189 2704 conicto
2371 2656 2560 2560 conicto
end_ol grestore 
gsave 11.409648 5.730000 translate 0.035278 -0.035278 scale
start_ol
2713 1622 moveto
2432 0 lineto
1985 0 lineto
2301 1605 lineto
2323 1718 2335 1804 conicto
2347 1891 2347 1941 conicto
2347 2142 2219 2255 conicto
2091 2368 1861 2368 conicto
1503 2368 1240 2128 conicto
978 1888 901 1490 conicto
620 0 lineto
192 0 lineto
896 3712 lineto
1341 3712 lineto
1053 2265 lineto
1218 2491 1476 2621 conicto
1734 2752 2017 2752 conicto
2367 2752 2559 2560 conicto
2752 2368 2752 2020 conicto
2752 1934 2742 1835 conicto
2733 1737 2713 1622 conicto
end_ol grestore 
gsave 11.814262 5.730000 translate 0.035278 -0.035278 scale
start_ol
2290 1600 moveto
2297 1637 2300 1676 conicto
2304 1716 2304 1755 conicto
2304 2039 2137 2203 conicto
1970 2368 1682 2368 conicto
1362 2368 1116 2167 conicto
871 1967 745 1597 conicto
2290 1600 lineto
2692 1280 moveto
663 1280 lineto
649 1186 644 1132 conicto
640 1078 640 1038 conicto
640 695 840 507 conicto
1041 320 1407 320 conicto
1689 320 1940 385 conicto
2191 450 2407 576 conicto
2319 128 lineto
2086 32 1837 -16 conicto
1589 -64 1332 -64 conicto
783 -64 487 203 conicto
192 470 192 961 conicto
192 1380 341 1740 conicto
490 2101 778 2383 conicto
964 2560 1220 2656 conicto
1476 2752 1764 2752 conicto
2216 2752 2484 2486 conicto
2752 2220 2752 1772 conicto
2752 1665 2737 1542 conicto
2722 1420 2692 1280 conicto
end_ol grestore 
gsave 12.208888 5.730000 translate 0.035278 -0.035278 scale
start_ol
2008 421 moveto
1832 182 1591 59 conicto
1350 -64 1057 -64 conicto
657 -64 424 210 conicto
192 484 192 961 conicto
192 1358 333 1718 conicto
474 2079 741 2364 conicto
917 2553 1139 2652 conicto
1361 2752 1604 2752 conicto
1862 2752 2059 2623 conicto
2256 2494 2363 2253 conicto
2642 3712 lineto
3072 3712 lineto
2368 0 lineto
1925 0 lineto
2008 421 lineto
640 1043 moveto
640 701 797 510 conicto
954 320 1232 320 conicto
1438 320 1614 417 conicto
1790 515 1925 706 conicto
2066 904 2147 1163 conicto
2229 1422 2229 1674 conicto
2229 2001 2072 2184 conicto
1915 2368 1639 2368 conicto
1431 2368 1251 2271 conicto
1071 2175 944 1994 conicto
805 1798 722 1539 conicto
640 1280 640 1043 conicto
end_ol grestore 
gsave 12.616008 5.730000 translate 0.035278 -0.035278 scale
start_ol
2921 3392 moveto
2828 2944 lineto
2589 3071 2353 3135 conicto
2117 3200 1896 3200 conicto
1467 3200 1213 3017 conicto
960 2835 960 2531 conicto
960 2365 1055 2276 conicto
1150 2187 1543 2085 conicto
1833 2016 lineto
2313 1890 2500 1695 conicto
2688 1501 2688 1151 conicto
2688 613 2274 274 conicto
1860 -64 1172 -64 conicto
889 -64 604 0 conicto
319 63 32 192 conicto
129 704 lineto
393 513 657 416 conicto
922 320 1186 320 conicto
1635 320 1905 523 conicto
2176 727 2176 1054 conicto
2176 1272 2067 1385 conicto
1958 1498 1598 1590 conicto
1308 1662 lineto
811 1787 629 1950 conicto
448 2114 448 2408 conicto
448 2924 856 3254 conicto
1264 3584 1918 3584 conicto
2172 3584 2421 3536 conicto
2671 3488 2921 3392 conicto
end_ol grestore 
gsave 13.023127 5.730000 translate 0.035278 -0.035278 scale
start_ol
2574 1513 moveto
2259 0 lineto
1829 0 lineto
1907 421 lineto
1720 177 1480 56 conicto
1240 -64 947 -64 conicto
616 -64 404 141 conicto
192 347 192 669 conicto
192 1129 555 1396 conicto
918 1664 1555 1664 conicto
2144 1664 lineto
2167 1795 lineto
2172 1815 2174 1838 conicto
2176 1861 2176 1910 conicto
2176 2127 2009 2247 conicto
1843 2368 1541 2368 conicto
1334 2368 1117 2320 conicto
900 2272 670 2176 conicto
743 2560 lineto
987 2656 1221 2704 conicto
1455 2752 1673 2752 conicto
2138 2752 2381 2542 conicto
2624 2332 2624 1933 conicto
2624 1852 2611 1743 conicto
2599 1635 2574 1513 conicto
2082 1344 moveto
1659 1344 lineto
1139 1344 889 1202 conicto
640 1060 640 762 conicto
640 555 767 437 conicto
895 320 1120 320 conicto
1465 320 1722 572 conicto
1980 825 2063 1248 conicto
2082 1344 lineto
end_ol grestore 
gsave 13.415256 5.730000 translate 0.035278 -0.035278 scale
start_ol
2432 1653 moveto
2432 2000 2278 2184 conicto
2125 2368 1837 2368 conicto
1641 2368 1462 2269 conicto
1284 2170 1145 1981 conicto
1008 1795 926 1530 conicto
845 1266 845 1007 conicto
845 676 998 498 conicto
1152 320 1435 320 conicto
1643 320 1821 416 conicto
2000 513 2128 698 conicto
2264 891 2348 1153 conicto
2432 1415 2432 1653 conicto
1066 2267 moveto
1243 2506 1482 2629 conicto
1722 2752 2016 2752 conicto
2426 2752 2653 2482 conicto
2880 2213 2880 1727 conicto
2880 1330 2739 969 conicto
2598 609 2333 324 conicto
2156 135 1934 35 conicto
1712 -64 1466 -64 conicto
1182 -64 988 58 conicto
795 180 699 421 conicto
425 -1024 lineto
0 -1024 lineto
704 2688 lineto
1145 2688 lineto
1066 2267 lineto
end_ol grestore 
gsave 13.822375 5.730000 translate 0.035278 -0.035278 scale
start_ol
751 3520 moveto
1234 3520 lineto
816 1383 lineto
790 1239 779 1146 conicto
768 1053 768 982 conicto
768 657 951 488 conicto
1134 320 1488 320 conicto
1946 320 2201 570 conicto
2457 820 2566 1383 conicto
2984 3520 lineto
3466 3520 lineto
3039 1324 lineto
2898 614 2502 275 conicto
2107 -64 1419 -64 conicto
882 -64 569 200 conicto
256 465 256 919 conicto
256 1002 268 1104 conicto
281 1206 306 1324 conicto
751 3520 lineto
end_ol grestore 
gsave 14.289431 5.730000 translate 0.035278 -0.035278 scale
start_ol
2444 2560 moveto
2361 2176 lineto
2192 2272 2004 2320 conicto
1817 2368 1618 2368 conicto
1283 2368 1089 2251 conicto
896 2134 896 1934 conicto
896 1700 1337 1575 conicto
1371 1566 1387 1561 conicto
1521 1519 lineto
1952 1397 2096 1263 conicto
2240 1129 2240 897 conicto
2240 472 1912 204 conicto
1585 -64 1054 -64 conicto
842 -64 609 -17 conicto
377 29 97 128 conicto
182 576 lineto
422 450 655 385 conicto
888 320 1101 320 conicto
1408 320 1600 457 conicto
1792 595 1792 805 conicto
1792 1032 1287 1172 conicto
1244 1184 lineto
1101 1221 lineto
762 1309 605 1453 conicto
448 1598 448 1823 conicto
448 2250 764 2501 conicto
1081 2752 1625 2752 conicto
1839 2752 2042 2704 conicto
2246 2656 2444 2560 conicto
end_ol grestore 
gsave 14.621615 5.730000 translate 0.035278 -0.035278 scale
start_ol
2290 1600 moveto
2297 1637 2300 1676 conicto
2304 1716 2304 1755 conicto
2304 2039 2137 2203 conicto
1970 2368 1682 2368 conicto
1362 2368 1116 2167 conicto
871 1967 745 1597 conicto
2290 1600 lineto
2692 1280 moveto
663 1280 lineto
649 1186 644 1132 conicto
640 1078 640 1038 conicto
640 695 840 507 conicto
1041 320 1407 320 conicto
1689 320 1940 385 conicto
2191 450 2407 576 conicto
2319 128 lineto
2086 32 1837 -16 conicto
1589 -64 1332 -64 conicto
783 -64 487 203 conicto
192 470 192 961 conicto
192 1380 341 1740 conicto
490 2101 778 2383 conicto
964 2560 1220 2656 conicto
1476 2752 1764 2752 conicto
2216 2752 2484 2486 conicto
2752 2220 2752 1772 conicto
2752 1665 2737 1542 conicto
2722 1420 2692 1280 conicto
end_ol grestore 
gsave 15.016242 5.730000 translate 0.035278 -0.035278 scale
start_ol
2219 2240 moveto
2151 2302 2063 2335 conicto
1975 2368 1876 2368 conicto
1518 2368 1250 2090 conicto
982 1812 894 1346 conicto
622 0 lineto
192 0 lineto
704 2688 lineto
1152 2688 lineto
1067 2231 lineto
1245 2482 1492 2617 conicto
1739 2752 2019 2752 conicto
2092 2752 2162 2737 conicto
2233 2722 2304 2688 conicto
2219 2240 lineto
end_ol grestore 
gsave -5.170000 9.665000 translate 0.035278 -0.035278 scale
start_ol
832 3520 moveto
2880 3520 lineto
2801 3136 lineto
1234 3136 lineto
1028 2112 lineto
2445 2112 lineto
2366 1728 lineto
949 1728 lineto
614 0 lineto
128 0 lineto
832 3520 lineto
end_ol grestore 
gsave -4.802849 9.665000 translate 0.035278 -0.035278 scale
start_ol
2304 3712 moveto
2235 3328 lineto
1820 3328 lineto
1583 3328 1475 3238 conicto
1368 3149 1316 2912 conicto
1269 2688 lineto
1985 2688 lineto
1921 2368 lineto
1205 2368 lineto
756 0 lineto
320 0 lineto
771 2368 lineto
355 2368 lineto
417 2688 lineto
832 2688 lineto
867 2864 lineto
957 3333 1182 3522 conicto
1408 3712 1893 3712 conicto
2304 3712 lineto
end_ol grestore 
gsave -4.578061 9.665000 translate 0.035278 -0.035278 scale
start_ol
832 3520 moveto
1536 3520 lineto
1940 1171 lineto
3282 3520 lineto
4032 3520 lineto
3328 0 lineto
2873 0 lineto
3468 3090 lineto
2102 704 lineto
1645 704 lineto
1203 3100 lineto
605 0 lineto
128 0 lineto
832 3520 lineto
end_ol grestore 
gsave -4.026082 9.665000 translate 0.035278 -0.035278 scale
start_ol
2574 1513 moveto
2259 0 lineto
1829 0 lineto
1907 421 lineto
1720 177 1480 56 conicto
1240 -64 947 -64 conicto
616 -64 404 141 conicto
192 347 192 669 conicto
192 1129 555 1396 conicto
918 1664 1555 1664 conicto
2144 1664 lineto
2167 1795 lineto
2172 1815 2174 1838 conicto
2176 1861 2176 1910 conicto
2176 2127 2009 2247 conicto
1843 2368 1541 2368 conicto
1334 2368 1117 2320 conicto
900 2272 670 2176 conicto
743 2560 lineto
987 2656 1221 2704 conicto
1455 2752 1673 2752 conicto
2138 2752 2381 2542 conicto
2624 2332 2624 1933 conicto
2624 1852 2611 1743 conicto
2599 1635 2574 1513 conicto
2082 1344 moveto
1659 1344 lineto
1139 1344 889 1202 conicto
640 1060 640 762 conicto
640 555 767 437 conicto
895 320 1120 320 conicto
1465 320 1722 572 conicto
1980 825 2063 1248 conicto
2082 1344 lineto
end_ol grestore 
gsave -3.633953 9.665000 translate 0.035278 -0.035278 scale
start_ol
2560 2560 moveto
2473 2112 lineto
2317 2240 2141 2304 conicto
1965 2368 1776 2368 conicto
1568 2368 1380 2294 conicto
1193 2221 1065 2086 conicto
862 1880 751 1602 conicto
640 1325 640 1029 conicto
640 671 818 495 conicto
997 320 1360 320 conicto
1540 320 1741 368 conicto
1943 416 2163 512 conicto
2081 64 lineto
1892 0 1693 -32 conicto
1494 -64 1284 -64 conicto
758 -64 475 203 conicto
192 470 192 966 conicto
192 1382 339 1733 conicto
487 2084 777 2364 conicto
975 2556 1241 2654 conicto
1508 2752 1824 2752 conicto
2008 2752 2189 2704 conicto
2371 2656 2560 2560 conicto
end_ol grestore 
gsave -3.281785 9.665000 translate 0.035278 -0.035278 scale
start_ol
3392 3264 moveto
3294 2752 lineto
3064 2980 2807 3090 conicto
2550 3200 2251 3200 conicto
1842 3200 1532 3006 conicto
1223 2813 998 2417 conicto
855 2162 779 1878 conicto
704 1594 704 1306 conicto
704 825 956 572 conicto
1209 320 1689 320 conicto
2022 320 2328 432 conicto
2634 544 2923 768 conicto
2811 192 lineto
2526 65 2235 0 conicto
1944 -64 1652 -64 conicto
965 -64 578 303 conicto
192 671 192 1325 conicto
192 1745 339 2150 conicto
486 2555 762 2889 conicto
1054 3245 1428 3414 conicto
1803 3584 2301 3584 conicto
2607 3584 2881 3504 conicto
3155 3424 3392 3264 conicto
end_ol grestore 
gsave -2.834705 9.665000 translate 0.035278 -0.035278 scale
start_ol
2444 2560 moveto
2361 2176 lineto
2192 2272 2004 2320 conicto
1817 2368 1618 2368 conicto
1283 2368 1089 2251 conicto
896 2134 896 1934 conicto
896 1700 1337 1575 conicto
1371 1566 1387 1561 conicto
1521 1519 lineto
1952 1397 2096 1263 conicto
2240 1129 2240 897 conicto
2240 472 1912 204 conicto
1585 -64 1054 -64 conicto
842 -64 609 -17 conicto
377 29 97 128 conicto
182 576 lineto
422 450 655 385 conicto
888 320 1101 320 conicto
1408 320 1600 457 conicto
1792 595 1792 805 conicto
1792 1032 1287 1172 conicto
1244 1184 lineto
1101 1221 lineto
762 1309 605 1453 conicto
448 1598 448 1823 conicto
448 2250 764 2501 conicto
1081 2752 1625 2752 conicto
1839 2752 2042 2704 conicto
2246 2656 2444 2560 conicto
end_ol grestore 
gsave -2.502520 9.665000 translate 0.035278 -0.035278 scale
start_ol
2560 2560 moveto
2473 2112 lineto
2317 2240 2141 2304 conicto
1965 2368 1776 2368 conicto
1568 2368 1380 2294 conicto
1193 2221 1065 2086 conicto
862 1880 751 1602 conicto
640 1325 640 1029 conicto
640 671 818 495 conicto
997 320 1360 320 conicto
1540 320 1741 368 conicto
1943 416 2163 512 conicto
2081 64 lineto
1892 0 1693 -32 conicto
1494 -64 1284 -64 conicto
758 -64 475 203 conicto
192 470 192 966 conicto
192 1382 339 1733 conicto
487 2084 777 2364 conicto
975 2556 1241 2654 conicto
1508 2752 1824 2752 conicto
2008 2752 2189 2704 conicto
2371 2656 2560 2560 conicto
end_ol grestore 
gsave -2.150352 9.665000 translate 0.035278 -0.035278 scale
start_ol
2713 1622 moveto
2432 0 lineto
1985 0 lineto
2301 1605 lineto
2323 1718 2335 1804 conicto
2347 1891 2347 1941 conicto
2347 2142 2219 2255 conicto
2091 2368 1861 2368 conicto
1503 2368 1240 2128 conicto
978 1888 901 1490 conicto
620 0 lineto
192 0 lineto
896 3712 lineto
1341 3712 lineto
1053 2265 lineto
1218 2491 1476 2621 conicto
1734 2752 2017 2752 conicto
2367 2752 2559 2560 conicto
2752 2368 2752 2020 conicto
2752 1934 2742 1835 conicto
2733 1737 2713 1622 conicto
end_ol grestore 
gsave -1.745738 9.665000 translate 0.035278 -0.035278 scale
start_ol
2290 1600 moveto
2297 1637 2300 1676 conicto
2304 1716 2304 1755 conicto
2304 2039 2137 2203 conicto
1970 2368 1682 2368 conicto
1362 2368 1116 2167 conicto
871 1967 745 1597 conicto
2290 1600 lineto
2692 1280 moveto
663 1280 lineto
649 1186 644 1132 conicto
640 1078 640 1038 conicto
640 695 840 507 conicto
1041 320 1407 320 conicto
1689 320 1940 385 conicto
2191 450 2407 576 conicto
2319 128 lineto
2086 32 1837 -16 conicto
1589 -64 1332 -64 conicto
783 -64 487 203 conicto
192 470 192 961 conicto
192 1380 341 1740 conicto
490 2101 778 2383 conicto
964 2560 1220 2656 conicto
1476 2752 1764 2752 conicto
2216 2752 2484 2486 conicto
2752 2220 2752 1772 conicto
2752 1665 2737 1542 conicto
2722 1420 2692 1280 conicto
end_ol grestore 
gsave -1.351112 9.665000 translate 0.035278 -0.035278 scale
start_ol
2008 421 moveto
1832 182 1591 59 conicto
1350 -64 1057 -64 conicto
657 -64 424 210 conicto
192 484 192 961 conicto
192 1358 333 1718 conicto
474 2079 741 2364 conicto
917 2553 1139 2652 conicto
1361 2752 1604 2752 conicto
1862 2752 2059 2623 conicto
2256 2494 2363 2253 conicto
2642 3712 lineto
3072 3712 lineto
2368 0 lineto
1925 0 lineto
2008 421 lineto
640 1043 moveto
640 701 797 510 conicto
954 320 1232 320 conicto
1438 320 1614 417 conicto
1790 515 1925 706 conicto
2066 904 2147 1163 conicto
2229 1422 2229 1674 conicto
2229 2001 2072 2184 conicto
1915 2368 1639 2368 conicto
1431 2368 1251 2271 conicto
1071 2175 944 1994 conicto
805 1798 722 1539 conicto
640 1280 640 1043 conicto
end_ol grestore 
gsave -0.943992 9.665000 translate 0.035278 -0.035278 scale
start_ol
2921 3392 moveto
2828 2944 lineto
2589 3071 2353 3135 conicto
2117 3200 1896 3200 conicto
1467 3200 1213 3017 conicto
960 2835 960 2531 conicto
960 2365 1055 2276 conicto
1150 2187 1543 2085 conicto
1833 2016 lineto
2313 1890 2500 1695 conicto
2688 1501 2688 1151 conicto
2688 613 2274 274 conicto
1860 -64 1172 -64 conicto
889 -64 604 0 conicto
319 63 32 192 conicto
129 704 lineto
393 513 657 416 conicto
922 320 1186 320 conicto
1635 320 1905 523 conicto
2176 727 2176 1054 conicto
2176 1272 2067 1385 conicto
1958 1498 1598 1590 conicto
1308 1662 lineto
811 1787 629 1950 conicto
448 2114 448 2408 conicto
448 2924 856 3254 conicto
1264 3584 1918 3584 conicto
2172 3584 2421 3536 conicto
2671 3488 2921 3392 conicto
end_ol grestore 
gsave -0.536873 9.665000 translate 0.035278 -0.035278 scale
start_ol
2574 1513 moveto
2259 0 lineto
1829 0 lineto
1907 421 lineto
1720 177 1480 56 conicto
1240 -64 947 -64 conicto
616 -64 404 141 conicto
192 347 192 669 conicto
192 1129 555 1396 conicto
918 1664 1555 1664 conicto
2144 1664 lineto
2167 1795 lineto
2172 1815 2174 1838 conicto
2176 1861 2176 1910 conicto
2176 2127 2009 2247 conicto
1843 2368 1541 2368 conicto
1334 2368 1117 2320 conicto
900 2272 670 2176 conicto
743 2560 lineto
987 2656 1221 2704 conicto
1455 2752 1673 2752 conicto
2138 2752 2381 2542 conicto
2624 2332 2624 1933 conicto
2624 1852 2611 1743 conicto
2599 1635 2574 1513 conicto
2082 1344 moveto
1659 1344 lineto
1139 1344 889 1202 conicto
640 1060 640 762 conicto
640 555 767 437 conicto
895 320 1120 320 conicto
1465 320 1722 572 conicto
1980 825 2063 1248 conicto
2082 1344 lineto
end_ol grestore 
gsave -0.144744 9.665000 translate 0.035278 -0.035278 scale
start_ol
2432 1653 moveto
2432 2000 2278 2184 conicto
2125 2368 1837 2368 conicto
1641 2368 1462 2269 conicto
1284 2170 1145 1981 conicto
1008 1795 926 1530 conicto
845 1266 845 1007 conicto
845 676 998 498 conicto
1152 320 1435 320 conicto
1643 320 1821 416 conicto
2000 513 2128 698 conicto
2264 891 2348 1153 conicto
2432 1415 2432 1653 conicto
1066 2267 moveto
1243 2506 1482 2629 conicto
1722 2752 2016 2752 conicto
2426 2752 2653 2482 conicto
2880 2213 2880 1727 conicto
2880 1330 2739 969 conicto
2598 609 2333 324 conicto
2156 135 1934 35 conicto
1712 -64 1466 -64 conicto
1182 -64 988 58 conicto
795 180 699 421 conicto
425 -1024 lineto
0 -1024 lineto
704 2688 lineto
1145 2688 lineto
1066 2267 lineto
end_ol grestore 
gsave 0.262375 9.665000 translate 0.035278 -0.035278 scale
start_ol
832 3520 moveto
1944 3520 lineto
2432 3520 2688 3295 conicto
2944 3071 2944 2638 conicto
2944 2056 2566 1732 conicto
2189 1408 1506 1408 conicto
901 1408 lineto
619 0 lineto
128 0 lineto
832 3520 lineto
1237 3136 moveto
980 1792 lineto
1584 1792 lineto
1994 1792 2213 2003 conicto
2432 2214 2432 2607 conicto
2432 2858 2283 2997 conicto
2134 3136 1865 3136 conicto
1237 3136 lineto
end_ol grestore 
gsave 0.647013 9.665000 translate 0.035278 -0.035278 scale
start_ol
2219 2240 moveto
2151 2302 2063 2335 conicto
1975 2368 1876 2368 conicto
1518 2368 1250 2090 conicto
982 1812 894 1346 conicto
622 0 lineto
192 0 lineto
704 2688 lineto
1152 2688 lineto
1067 2231 lineto
1245 2482 1492 2617 conicto
1739 2752 2019 2752 conicto
2092 2752 2162 2737 conicto
2233 2722 2304 2688 conicto
2219 2240 lineto
end_ol grestore 
gsave 0.909265 9.665000 translate 0.035278 -0.035278 scale
start_ol
1216 -64 moveto
742 -64 467 227 conicto
192 518 192 1021 conicto
192 1313 287 1616 conicto
382 1919 533 2125 conicto
771 2446 1064 2599 conicto
1358 2752 1728 2752 conicto
2187 2752 2469 2467 conicto
2752 2182 2752 1722 conicto
2752 1404 2658 1088 conicto
2565 772 2413 563 conicto
2178 243 1884 89 conicto
1591 -64 1216 -64 conicto
640 1038 moveto
640 678 794 499 conicto
949 320 1263 320 conicto
1713 320 2008 703 conicto
2304 1086 2304 1673 conicto
2304 2017 2146 2192 conicto
1988 2368 1681 2368 conicto
1428 2368 1231 2253 conicto
1034 2138 878 1903 conicto
764 1728 702 1503 conicto
640 1278 640 1038 conicto
end_ol grestore 
gsave 1.301394 9.665000 translate 0.035278 -0.035278 scale
start_ol
320 2688 moveto
778 2688 lineto
1163 403 lineto
2422 2688 lineto
2880 2688 lineto
1384 0 lineto
801 0 lineto
320 2688 lineto
end_ol grestore 
gsave 1.681038 9.665000 translate 0.035278 -0.035278 scale
start_ol
896 3712 moveto
1333 3712 lineto
1226 3136 lineto
768 3136 lineto
896 3712 lineto
704 2688 moveto
1134 2688 lineto
622 0 lineto
192 0 lineto
704 2688 lineto
end_ol grestore 
gsave 1.858367 9.665000 translate 0.035278 -0.035278 scale
start_ol
2008 421 moveto
1832 182 1591 59 conicto
1350 -64 1057 -64 conicto
657 -64 424 210 conicto
192 484 192 961 conicto
192 1358 333 1718 conicto
474 2079 741 2364 conicto
917 2553 1139 2652 conicto
1361 2752 1604 2752 conicto
1862 2752 2059 2623 conicto
2256 2494 2363 2253 conicto
2642 3712 lineto
3072 3712 lineto
2368 0 lineto
1925 0 lineto
2008 421 lineto
640 1043 moveto
640 701 797 510 conicto
954 320 1232 320 conicto
1438 320 1614 417 conicto
1790 515 1925 706 conicto
2066 904 2147 1163 conicto
2229 1422 2229 1674 conicto
2229 2001 2072 2184 conicto
1915 2368 1639 2368 conicto
1431 2368 1251 2271 conicto
1071 2175 944 1994 conicto
805 1798 722 1539 conicto
640 1280 640 1043 conicto
end_ol grestore 
gsave 2.265486 9.665000 translate 0.035278 -0.035278 scale
start_ol
2290 1600 moveto
2297 1637 2300 1676 conicto
2304 1716 2304 1755 conicto
2304 2039 2137 2203 conicto
1970 2368 1682 2368 conicto
1362 2368 1116 2167 conicto
871 1967 745 1597 conicto
2290 1600 lineto
2692 1280 moveto
663 1280 lineto
649 1186 644 1132 conicto
640 1078 640 1038 conicto
640 695 840 507 conicto
1041 320 1407 320 conicto
1689 320 1940 385 conicto
2191 450 2407 576 conicto
2319 128 lineto
2086 32 1837 -16 conicto
1589 -64 1332 -64 conicto
783 -64 487 203 conicto
192 470 192 961 conicto
192 1380 341 1740 conicto
490 2101 778 2383 conicto
964 2560 1220 2656 conicto
1476 2752 1764 2752 conicto
2216 2752 2484 2486 conicto
2752 2220 2752 1772 conicto
2752 1665 2737 1542 conicto
2722 1420 2692 1280 conicto
end_ol grestore 
gsave 2.660112 9.665000 translate 0.035278 -0.035278 scale
start_ol
2219 2240 moveto
2151 2302 2063 2335 conicto
1975 2368 1876 2368 conicto
1518 2368 1250 2090 conicto
982 1812 894 1346 conicto
622 0 lineto
192 0 lineto
704 2688 lineto
1152 2688 lineto
1067 2231 lineto
1245 2482 1492 2617 conicto
1739 2752 2019 2752 conicto
2092 2752 2162 2737 conicto
2233 2722 2304 2688 conicto
2219 2240 lineto
end_ol grestore 
gsave 10.270000 9.680000 translate 0.035278 -0.035278 scale
start_ol
832 3520 moveto
2880 3520 lineto
2801 3136 lineto
1234 3136 lineto
1028 2112 lineto
2445 2112 lineto
2366 1728 lineto
949 1728 lineto
614 0 lineto
128 0 lineto
832 3520 lineto
end_ol grestore 
gsave 10.637151 9.680000 translate 0.035278 -0.035278 scale
start_ol
2304 3712 moveto
2235 3328 lineto
1820 3328 lineto
1583 3328 1475 3238 conicto
1368 3149 1316 2912 conicto
1269 2688 lineto
1985 2688 lineto
1921 2368 lineto
1205 2368 lineto
756 0 lineto
320 0 lineto
771 2368 lineto
355 2368 lineto
417 2688 lineto
832 2688 lineto
867 2864 lineto
957 3333 1182 3522 conicto
1408 3712 1893 3712 conicto
2304 3712 lineto
end_ol grestore 
gsave 10.861939 9.680000 translate 0.035278 -0.035278 scale
start_ol
832 3520 moveto
1536 3520 lineto
1940 1171 lineto
3282 3520 lineto
4032 3520 lineto
3328 0 lineto
2873 0 lineto
3468 3090 lineto
2102 704 lineto
1645 704 lineto
1203 3100 lineto
605 0 lineto
128 0 lineto
832 3520 lineto
end_ol grestore 
gsave 11.413918 9.680000 translate 0.035278 -0.035278 scale
start_ol
2574 1513 moveto
2259 0 lineto
1829 0 lineto
1907 421 lineto
1720 177 1480 56 conicto
1240 -64 947 -64 conicto
616 -64 404 141 conicto
192 347 192 669 conicto
192 1129 555 1396 conicto
918 1664 1555 1664 conicto
2144 1664 lineto
2167 1795 lineto
2172 1815 2174 1838 conicto
2176 1861 2176 1910 conicto
2176 2127 2009 2247 conicto
1843 2368 1541 2368 conicto
1334 2368 1117 2320 conicto
900 2272 670 2176 conicto
743 2560 lineto
987 2656 1221 2704 conicto
1455 2752 1673 2752 conicto
2138 2752 2381 2542 conicto
2624 2332 2624 1933 conicto
2624 1852 2611 1743 conicto
2599 1635 2574 1513 conicto
2082 1344 moveto
1659 1344 lineto
1139 1344 889 1202 conicto
640 1060 640 762 conicto
640 555 767 437 conicto
895 320 1120 320 conicto
1465 320 1722 572 conicto
1980 825 2063 1248 conicto
2082 1344 lineto
end_ol grestore 
gsave 11.806047 9.680000 translate 0.035278 -0.035278 scale
start_ol
2560 2560 moveto
2473 2112 lineto
2317 2240 2141 2304 conicto
1965 2368 1776 2368 conicto
1568 2368 1380 2294 conicto
1193 2221 1065 2086 conicto
862 1880 751 1602 conicto
640 1325 640 1029 conicto
640 671 818 495 conicto
997 320 1360 320 conicto
1540 320 1741 368 conicto
1943 416 2163 512 conicto
2081 64 lineto
1892 0 1693 -32 conicto
1494 -64 1284 -64 conicto
758 -64 475 203 conicto
192 470 192 966 conicto
192 1382 339 1733 conicto
487 2084 777 2364 conicto
975 2556 1241 2654 conicto
1508 2752 1824 2752 conicto
2008 2752 2189 2704 conicto
2371 2656 2560 2560 conicto
end_ol grestore 
gsave 12.158215 9.680000 translate 0.035278 -0.035278 scale
start_ol
2921 3392 moveto
2828 2944 lineto
2589 3071 2353 3135 conicto
2117 3200 1896 3200 conicto
1467 3200 1213 3017 conicto
960 2835 960 2531 conicto
960 2365 1055 2276 conicto
1150 2187 1543 2085 conicto
1833 2016 lineto
2313 1890 2500 1695 conicto
2688 1501 2688 1151 conicto
2688 613 2274 274 conicto
1860 -64 1172 -64 conicto
889 -64 604 0 conicto
319 63 32 192 conicto
129 704 lineto
393 513 657 416 conicto
922 320 1186 320 conicto
1635 320 1905 523 conicto
2176 727 2176 1054 conicto
2176 1272 2067 1385 conicto
1958 1498 1598 1590 conicto
1308 1662 lineto
811 1787 629 1950 conicto
448 2114 448 2408 conicto
448 2924 856 3254 conicto
1264 3584 1918 3584 conicto
2172 3584 2421 3536 conicto
2671 3488 2921 3392 conicto
end_ol grestore 
gsave 12.565335 9.680000 translate 0.035278 -0.035278 scale
start_ol
2560 2560 moveto
2473 2112 lineto
2317 2240 2141 2304 conicto
1965 2368 1776 2368 conicto
1568 2368 1380 2294 conicto
1193 2221 1065 2086 conicto
862 1880 751 1602 conicto
640 1325 640 1029 conicto
640 671 818 495 conicto
997 320 1360 320 conicto
1540 320 1741 368 conicto
1943 416 2163 512 conicto
2081 64 lineto
1892 0 1693 -32 conicto
1494 -64 1284 -64 conicto
758 -64 475 203 conicto
192 470 192 966 conicto
192 1382 339 1733 conicto
487 2084 777 2364 conicto
975 2556 1241 2654 conicto
1508 2752 1824 2752 conicto
2008 2752 2189 2704 conicto
2371 2656 2560 2560 conicto
end_ol grestore 
gsave 12.917504 9.680000 translate 0.035278 -0.035278 scale
start_ol
2713 1622 moveto
2432 0 lineto
1985 0 lineto
2301 1605 lineto
2323 1718 2335 1804 conicto
2347 1891 2347 1941 conicto
2347 2142 2219 2255 conicto
2091 2368 1861 2368 conicto
1503 2368 1240 2128 conicto
978 1888 901 1490 conicto
620 0 lineto
192 0 lineto
896 3712 lineto
1341 3712 lineto
1053 2265 lineto
1218 2491 1476 2621 conicto
1734 2752 2017 2752 conicto
2367 2752 2559 2560 conicto
2752 2368 2752 2020 conicto
2752 1934 2742 1835 conicto
2733 1737 2713 1622 conicto
end_ol grestore 
gsave 13.322118 9.680000 translate 0.035278 -0.035278 scale
start_ol
2290 1600 moveto
2297 1637 2300 1676 conicto
2304 1716 2304 1755 conicto
2304 2039 2137 2203 conicto
1970 2368 1682 2368 conicto
1362 2368 1116 2167 conicto
871 1967 745 1597 conicto
2290 1600 lineto
2692 1280 moveto
663 1280 lineto
649 1186 644 1132 conicto
640 1078 640 1038 conicto
640 695 840 507 conicto
1041 320 1407 320 conicto
1689 320 1940 385 conicto
2191 450 2407 576 conicto
2319 128 lineto
2086 32 1837 -16 conicto
1589 -64 1332 -64 conicto
783 -64 487 203 conicto
192 470 192 961 conicto
192 1380 341 1740 conicto
490 2101 778 2383 conicto
964 2560 1220 2656 conicto
1476 2752 1764 2752 conicto
2216 2752 2484 2486 conicto
2752 2220 2752 1772 conicto
2752 1665 2737 1542 conicto
2722 1420 2692 1280 conicto
end_ol grestore 
gsave 13.716744 9.680000 translate 0.035278 -0.035278 scale
start_ol
2008 421 moveto
1832 182 1591 59 conicto
1350 -64 1057 -64 conicto
657 -64 424 210 conicto
192 484 192 961 conicto
192 1358 333 1718 conicto
474 2079 741 2364 conicto
917 2553 1139 2652 conicto
1361 2752 1604 2752 conicto
1862 2752 2059 2623 conicto
2256 2494 2363 2253 conicto
2642 3712 lineto
3072 3712 lineto
2368 0 lineto
1925 0 lineto
2008 421 lineto
640 1043 moveto
640 701 797 510 conicto
954 320 1232 320 conicto
1438 320 1614 417 conicto
1790 515 1925 706 conicto
2066 904 2147 1163 conicto
2229 1422 2229 1674 conicto
2229 2001 2072 2184 conicto
1915 2368 1639 2368 conicto
1431 2368 1251 2271 conicto
1071 2175 944 1994 conicto
805 1798 722 1539 conicto
640 1280 640 1043 conicto
end_ol grestore 
gsave 14.123863 9.680000 translate 0.035278 -0.035278 scale
start_ol
2921 3392 moveto
2828 2944 lineto
2589 3071 2353 3135 conicto
2117 3200 1896 3200 conicto
1467 3200 1213 3017 conicto
960 2835 960 2531 conicto
960 2365 1055 2276 conicto
1150 2187 1543 2085 conicto
1833 2016 lineto
2313 1890 2500 1695 conicto
2688 1501 2688 1151 conicto
2688 613 2274 274 conicto
1860 -64 1172 -64 conicto
889 -64 604 0 conicto
319 63 32 192 conicto
129 704 lineto
393 513 657 416 conicto
922 320 1186 320 conicto
1635 320 1905 523 conicto
2176 727 2176 1054 conicto
2176 1272 2067 1385 conicto
1958 1498 1598 1590 conicto
1308 1662 lineto
811 1787 629 1950 conicto
448 2114 448 2408 conicto
448 2924 856 3254 conicto
1264 3584 1918 3584 conicto
2172 3584 2421 3536 conicto
2671 3488 2921 3392 conicto
end_ol grestore 
gsave 14.530982 9.680000 translate 0.035278 -0.035278 scale
start_ol
2574 1513 moveto
2259 0 lineto
1829 0 lineto
1907 421 lineto
1720 177 1480 56 conicto
1240 -64 947 -64 conicto
616 -64 404 141 conicto
192 347 192 669 conicto
192 1129 555 1396 conicto
918 1664 1555 1664 conicto
2144 1664 lineto
2167 1795 lineto
2172 1815 2174 1838 conicto
2176 1861 2176 1910 conicto
2176 2127 2009 2247 conicto
1843 2368 1541 2368 conicto
1334 2368 1117 2320 conicto
900 2272 670 2176 conicto
743 2560 lineto
987 2656 1221 2704 conicto
1455 2752 1673 2752 conicto
2138 2752 2381 2542 conicto
2624 2332 2624 1933 conicto
2624 1852 2611 1743 conicto
2599 1635 2574 1513 conicto
2082 1344 moveto
1659 1344 lineto
1139 1344 889 1202 conicto
640 1060 640 762 conicto
640 555 767 437 conicto
895 320 1120 320 conicto
1465 320 1722 572 conicto
1980 825 2063 1248 conicto
2082 1344 lineto
end_ol grestore 
gsave 14.923111 9.680000 translate 0.035278 -0.035278 scale
start_ol
2432 1653 moveto
2432 2000 2278 2184 conicto
2125 2368 1837 2368 conicto
1641 2368 1462 2269 conicto
1284 2170 1145 1981 conicto
1008 1795 926 1530 conicto
845 1266 845 1007 conicto
845 676 998 498 conicto
1152 320 1435 320 conicto
1643 320 1821 416 conicto
2000 513 2128 698 conicto
2264 891 2348 1153 conicto
2432 1415 2432 1653 conicto
1066 2267 moveto
1243 2506 1482 2629 conicto
1722 2752 2016 2752 conicto
2426 2752 2653 2482 conicto
2880 2213 2880 1727 conicto
2880 1330 2739 969 conicto
2598 609 2333 324 conicto
2156 135 1934 35 conicto
1712 -64 1466 -64 conicto
1182 -64 988 58 conicto
795 180 699 421 conicto
425 -1024 lineto
0 -1024 lineto
704 2688 lineto
1145 2688 lineto
1066 2267 lineto
end_ol grestore 
gsave 15.330231 9.680000 translate 0.035278 -0.035278 scale
start_ol
832 3520 moveto
1944 3520 lineto
2432 3520 2688 3295 conicto
2944 3071 2944 2638 conicto
2944 2056 2566 1732 conicto
2189 1408 1506 1408 conicto
901 1408 lineto
619 0 lineto
128 0 lineto
832 3520 lineto
1237 3136 moveto
980 1792 lineto
1584 1792 lineto
1994 1792 2213 2003 conicto
2432 2214 2432 2607 conicto
2432 2858 2283 2997 conicto
2134 3136 1865 3136 conicto
1237 3136 lineto
end_ol grestore 
gsave 15.714869 9.680000 translate 0.035278 -0.035278 scale
start_ol
2219 2240 moveto
2151 2302 2063 2335 conicto
1975 2368 1876 2368 conicto
1518 2368 1250 2090 conicto
982 1812 894 1346 conicto
622 0 lineto
192 0 lineto
704 2688 lineto
1152 2688 lineto
1067 2231 lineto
1245 2482 1492 2617 conicto
1739 2752 2019 2752 conicto
2092 2752 2162 2737 conicto
2233 2722 2304 2688 conicto
2219 2240 lineto
end_ol grestore 
gsave 15.977120 9.680000 translate 0.035278 -0.035278 scale
start_ol
1216 -64 moveto
742 -64 467 227 conicto
192 518 192 1021 conicto
192 1313 287 1616 conicto
382 1919 533 2125 conicto
771 2446 1064 2599 conicto
1358 2752 1728 2752 conicto
2187 2752 2469 2467 conicto
2752 2182 2752 1722 conicto
2752 1404 2658 1088 conicto
2565 772 2413 563 conicto
2178 243 1884 89 conicto
1591 -64 1216 -64 conicto
640 1038 moveto
640 678 794 499 conicto
949 320 1263 320 conicto
1713 320 2008 703 conicto
2304 1086 2304 1673 conicto
2304 2017 2146 2192 conicto
1988 2368 1681 2368 conicto
1428 2368 1231 2253 conicto
1034 2138 878 1903 conicto
764 1728 702 1503 conicto
640 1278 640 1038 conicto
end_ol grestore 
gsave 16.369249 9.680000 translate 0.035278 -0.035278 scale
start_ol
320 2688 moveto
778 2688 lineto
1163 403 lineto
2422 2688 lineto
2880 2688 lineto
1384 0 lineto
801 0 lineto
320 2688 lineto
end_ol grestore 
gsave 16.748893 9.680000 translate 0.035278 -0.035278 scale
start_ol
896 3712 moveto
1333 3712 lineto
1226 3136 lineto
768 3136 lineto
896 3712 lineto
704 2688 moveto
1134 2688 lineto
622 0 lineto
192 0 lineto
704 2688 lineto
end_ol grestore 
gsave 16.926222 9.680000 translate 0.035278 -0.035278 scale
start_ol
2008 421 moveto
1832 182 1591 59 conicto
1350 -64 1057 -64 conicto
657 -64 424 210 conicto
192 484 192 961 conicto
192 1358 333 1718 conicto
474 2079 741 2364 conicto
917 2553 1139 2652 conicto
1361 2752 1604 2752 conicto
1862 2752 2059 2623 conicto
2256 2494 2363 2253 conicto
2642 3712 lineto
3072 3712 lineto
2368 0 lineto
1925 0 lineto
2008 421 lineto
640 1043 moveto
640 701 797 510 conicto
954 320 1232 320 conicto
1438 320 1614 417 conicto
1790 515 1925 706 conicto
2066 904 2147 1163 conicto
2229 1422 2229 1674 conicto
2229 2001 2072 2184 conicto
1915 2368 1639 2368 conicto
1431 2368 1251 2271 conicto
1071 2175 944 1994 conicto
805 1798 722 1539 conicto
640 1280 640 1043 conicto
end_ol grestore 
gsave 17.333341 9.680000 translate 0.035278 -0.035278 scale
start_ol
2290 1600 moveto
2297 1637 2300 1676 conicto
2304 1716 2304 1755 conicto
2304 2039 2137 2203 conicto
1970 2368 1682 2368 conicto
1362 2368 1116 2167 conicto
871 1967 745 1597 conicto
2290 1600 lineto
2692 1280 moveto
663 1280 lineto
649 1186 644 1132 conicto
640 1078 640 1038 conicto
640 695 840 507 conicto
1041 320 1407 320 conicto
1689 320 1940 385 conicto
2191 450 2407 576 conicto
2319 128 lineto
2086 32 1837 -16 conicto
1589 -64 1332 -64 conicto
783 -64 487 203 conicto
192 470 192 961 conicto
192 1380 341 1740 conicto
490 2101 778 2383 conicto
964 2560 1220 2656 conicto
1476 2752 1764 2752 conicto
2216 2752 2484 2486 conicto
2752 2220 2752 1772 conicto
2752 1665 2737 1542 conicto
2722 1420 2692 1280 conicto
end_ol grestore 
gsave 17.727968 9.680000 translate 0.035278 -0.035278 scale
start_ol
2219 2240 moveto
2151 2302 2063 2335 conicto
1975 2368 1876 2368 conicto
1518 2368 1250 2090 conicto
982 1812 894 1346 conicto
622 0 lineto
192 0 lineto
704 2688 lineto
1152 2688 lineto
1067 2231 lineto
1245 2482 1492 2617 conicto
1739 2752 2019 2752 conicto
2092 2752 2162 2737 conicto
2233 2722 2304 2688 conicto
2219 2240 lineto
end_ol grestore 
1.000000 1.000000 1.000000 srgb
n 16.870000 7.135000 m 16.870000 7.882500 l 23.737500 7.882500 l 23.737500 7.135000 l f
0.000000 0.000000 0.000000 srgb
gsave 16.870000 7.730000 translate 0.035278 -0.035278 scale
start_ol
2176 3712 moveto
2176 3136 lineto
1683 3136 lineto
1493 3136 1419 3076 conicto
1344 3013 1344 2862 conicto
1344 2688 lineto
2368 2688 lineto
2368 2871 lineto
2368 3301 2604 3505 conicto
2840 3712 3334 3712 conicto
3968 3712 lineto
3968 3136 lineto
3513 3136 lineto
3338 3136 3269 3076 conicto
3200 3013 3200 2862 conicto
3200 2688 lineto
3904 2688 lineto
3904 2048 lineto
3200 2048 lineto
3200 0 lineto
2368 0 lineto
2368 2048 lineto
1344 2048 lineto
1344 0 lineto
512 0 lineto
512 2048 lineto
64 2048 lineto
64 2688 lineto
512 2688 lineto
512 2871 lineto
512 3301 757 3505 conicto
1003 3712 1517 3712 conicto
2176 3712 lineto
end_ol grestore 
gsave 17.387012 7.730000 translate 0.035278 -0.035278 scale
start_ol
256 1728 moveto
1728 1728 lineto
1728 1024 lineto
256 1024 lineto
256 1728 lineto
end_ol grestore 
gsave 17.651761 7.730000 translate 0.035278 -0.035278 scale
start_ol
2849 2251 moveto
3012 2496 3235 2624 conicto
3459 2752 3727 2752 conicto
4189 2752 4430 2468 conicto
4672 2184 4672 1642 conicto
4672 0 lineto
3840 0 lineto
3840 1406 lineto
3843 1437 3844 1471 conicto
3845 1505 3845 1567 conicto
3845 1854 3758 1983 conicto
3671 2112 3478 2112 conicto
3224 2112 3086 1910 conicto
2949 1708 2944 1325 conicto
2944 0 lineto
2112 0 lineto
2112 1406 lineto
2112 1854 2032 1983 conicto
1953 2112 1750 2112 conicto
1494 2112 1355 1908 conicto
1216 1705 1216 1327 conicto
1216 0 lineto
384 0 lineto
384 2688 lineto
1216 2688 lineto
1216 2304 lineto
1374 2527 1579 2639 conicto
1785 2752 2033 2752 conicto
2311 2752 2525 2620 conicto
2739 2489 2849 2251 conicto
end_ol grestore 
gsave 18.318635 7.730000 translate 0.035278 -0.035278 scale
start_ol
1585 1216 moveto
1306 1216 1165 1125 conicto
1024 1035 1024 858 conicto
1024 696 1137 604 conicto
1251 512 1453 512 conicto
1704 512 1876 685 conicto
2048 858 2048 1118 conicto
2048 1216 lineto
1585 1216 lineto
2880 1541 moveto
2880 0 lineto
2048 0 lineto
2048 384 lineto
1875 150 1658 43 conicto
1442 -64 1132 -64 conicto
714 -64 453 180 conicto
192 424 192 813 conicto
192 1286 513 1507 conicto
834 1728 1522 1728 conicto
2048 1728 lineto
2048 1800 lineto
2048 1995 1889 2085 conicto
1730 2176 1393 2176 conicto
1120 2176 885 2128 conicto
650 2080 448 1984 conicto
448 2624 lineto
715 2687 984 2719 conicto
1253 2752 1522 2752 conicto
2241 2752 2560 2467 conicto
2880 2182 2880 1541 conicto
end_ol grestore 
gsave 18.750724 7.730000 translate 0.035278 -0.035278 scale
start_ol
2560 2560 moveto
2560 1856 lineto
2386 1987 2210 2049 conicto
2034 2112 1846 2112 conicto
1487 2112 1287 1909 conicto
1088 1707 1088 1344 conicto
1088 981 1287 778 conicto
1487 576 1846 576 conicto
2046 576 2226 640 conicto
2407 705 2560 832 conicto
2560 128 lineto
2359 32 2152 -16 conicto
1945 -64 1736 -64 conicto
1011 -64 601 308 conicto
192 681 192 1344 conicto
192 2007 601 2379 conicto
1011 2752 1736 2752 conicto
1947 2752 2151 2704 conicto
2356 2656 2560 2560 conicto
end_ol grestore 
gsave 19.130368 7.730000 translate 0.035278 -0.035278 scale
start_ol
256 1728 moveto
1728 1728 lineto
1728 1024 lineto
256 1024 lineto
256 1728 lineto
end_ol grestore 
gsave 19.395117 7.730000 translate 0.035278 -0.035278 scale
start_ol
2496 2560 moveto
2496 1920 lineto
2225 2048 1973 2112 conicto
1721 2176 1497 2176 conicto
1257 2176 1140 2113 conicto
1024 2050 1024 1919 conicto
1024 1812 1117 1755 conicto
1211 1698 1452 1671 conicto
1609 1650 lineto
2247 1567 2467 1378 conicto
2688 1189 2688 785 conicto
2688 362 2375 149 conicto
2062 -64 1441 -64 conicto
1178 -64 897 -16 conicto
616 32 320 128 conicto
320 768 lineto
580 640 853 576 conicto
1126 512 1408 512 conicto
1663 512 1791 581 conicto
1920 650 1920 785 conicto
1920 899 1829 955 conicto
1738 1011 1467 1042 conicto
1310 1061 lineto
726 1133 491 1326 conicto
256 1520 256 1915 conicto
256 2341 546 2546 conicto
837 2752 1437 2752 conicto
1672 2752 1931 2705 conicto
2191 2659 2496 2560 conicto
end_ol grestore 
gsave 19.774761 7.730000 translate 0.035278 -0.035278 scale
start_ol
2560 2560 moveto
2560 1856 lineto
2386 1987 2210 2049 conicto
2034 2112 1846 2112 conicto
1487 2112 1287 1909 conicto
1088 1707 1088 1344 conicto
1088 981 1287 778 conicto
1487 576 1846 576 conicto
2046 576 2226 640 conicto
2407 705 2560 832 conicto
2560 128 lineto
2359 32 2152 -16 conicto
1945 -64 1736 -64 conicto
1011 -64 601 308 conicto
192 681 192 1344 conicto
192 2007 601 2379 conicto
1011 2752 1736 2752 conicto
1947 2752 2151 2704 conicto
2356 2656 2560 2560 conicto
end_ol grestore 
gsave 20.154405 7.730000 translate 0.035278 -0.035278 scale
start_ol
3072 1642 moveto
3072 0 lineto
2240 0 lineto
2240 267 lineto
2240 1252 lineto
2240 1606 2223 1738 conicto
2207 1871 2167 1934 conicto
2115 2018 2024 2065 conicto
1934 2112 1818 2112 conicto
1537 2112 1376 1903 conicto
1216 1695 1216 1327 conicto
1216 0 lineto
384 0 lineto
384 3712 lineto
1216 3712 lineto
1216 2304 lineto
1412 2534 1632 2643 conicto
1852 2752 2117 2752 conicto
2586 2752 2829 2468 conicto
3072 2184 3072 1642 conicto
end_ol grestore 
gsave 20.608976 7.730000 translate 0.035278 -0.035278 scale
start_ol
3072 1388 moveto
3072 1152 lineto
1024 1152 lineto
1056 832 1247 672 conicto
1438 512 1781 512 conicto
2057 512 2347 591 conicto
2638 671 2944 832 conicto
2944 192 lineto
2640 65 2335 0 conicto
2031 -64 1727 -64 conicto
999 -64 595 306 conicto
192 676 192 1344 conicto
192 2000 588 2376 conicto
985 2752 1680 2752 conicto
2312 2752 2692 2380 conicto
3072 2009 3072 1388 conicto
2240 1664 moveto
2240 1894 2085 2035 conicto
1931 2176 1682 2176 conicto
1413 2176 1244 2044 conicto
1075 1912 1034 1664 conicto
2240 1664 lineto
end_ol grestore 
gsave 21.043562 7.730000 translate 0.035278 -0.035278 scale
start_ol
2240 2304 moveto
2240 3712 lineto
3072 3712 lineto
3072 0 lineto
2240 0 lineto
2240 384 lineto
2060 152 1843 44 conicto
1627 -64 1342 -64 conicto
839 -64 515 330 conicto
192 724 192 1344 conicto
192 1964 515 2358 conicto
839 2752 1342 2752 conicto
1625 2752 1842 2643 conicto
2060 2534 2240 2304 conicto
1663 576 moveto
1944 576 2092 772 conicto
2240 969 2240 1344 conicto
2240 1719 2092 1915 conicto
1944 2112 1663 2112 conicto
1384 2112 1236 1915 conicto
1088 1719 1088 1344 conicto
1088 969 1236 772 conicto
1384 576 1663 576 conicto
end_ol grestore 
gsave 21.500630 7.730000 translate 0.035278 -0.035278 scale
start_ol
256 1728 moveto
1728 1728 lineto
1728 1024 lineto
256 1024 lineto
256 1728 lineto
end_ol grestore 
gsave 21.765379 7.730000 translate 0.035278 -0.035278 scale
start_ol
2496 2560 moveto
2496 1920 lineto
2225 2048 1973 2112 conicto
1721 2176 1497 2176 conicto
1257 2176 1140 2113 conicto
1024 2050 1024 1919 conicto
1024 1812 1117 1755 conicto
1211 1698 1452 1671 conicto
1609 1650 lineto
2247 1567 2467 1378 conicto
2688 1189 2688 785 conicto
2688 362 2375 149 conicto
2062 -64 1441 -64 conicto
1178 -64 897 -16 conicto
616 32 320 128 conicto
320 768 lineto
580 640 853 576 conicto
1126 512 1408 512 conicto
1663 512 1791 581 conicto
1920 650 1920 785 conicto
1920 899 1829 955 conicto
1738 1011 1467 1042 conicto
1310 1061 lineto
726 1133 491 1326 conicto
256 1520 256 1915 conicto
256 2341 546 2546 conicto
837 2752 1437 2752 conicto
1672 2752 1931 2705 conicto
2191 2659 2496 2560 conicto
end_ol grestore 
gsave 22.145023 7.730000 translate 0.035278 -0.035278 scale
start_ol
1585 1216 moveto
1306 1216 1165 1125 conicto
1024 1035 1024 858 conicto
1024 696 1137 604 conicto
1251 512 1453 512 conicto
1704 512 1876 685 conicto
2048 858 2048 1118 conicto
2048 1216 lineto
1585 1216 lineto
2880 1541 moveto
2880 0 lineto
2048 0 lineto
2048 384 lineto
1875 150 1658 43 conicto
1442 -64 1132 -64 conicto
714 -64 453 180 conicto
192 424 192 813 conicto
192 1286 513 1507 conicto
834 1728 1522 1728 conicto
2048 1728 lineto
2048 1800 lineto
2048 1995 1889 2085 conicto
1730 2176 1393 2176 conicto
1120 2176 885 2128 conicto
650 2080 448 1984 conicto
448 2624 lineto
715 2687 984 2719 conicto
1253 2752 1522 2752 conicto
2241 2752 2560 2467 conicto
2880 2182 2880 1541 conicto
end_ol grestore 
gsave 22.577112 7.730000 translate 0.035278 -0.035278 scale
start_ol
1216 384 moveto
1216 -1024 lineto
384 -1024 lineto
384 2688 lineto
1216 2688 lineto
1216 2304 lineto
1396 2534 1614 2643 conicto
1832 2752 2116 2752 conicto
2619 2752 2941 2358 conicto
3264 1964 3264 1344 conicto
3264 724 2941 330 conicto
2619 -64 2116 -64 conicto
1832 -64 1614 45 conicto
1396 154 1216 384 conicto
1794 2112 moveto
1515 2112 1365 1914 conicto
1216 1716 1216 1344 conicto
1216 972 1365 774 conicto
1515 576 1794 576 conicto
2074 576 2221 772 conicto
2368 969 2368 1344 conicto
2368 1719 2221 1915 conicto
2074 2112 1794 2112 conicto
end_ol grestore 
gsave 23.034180 7.730000 translate 0.035278 -0.035278 scale
start_ol
512 896 moveto
1344 896 lineto
1344 0 lineto
512 0 lineto
512 896 lineto
end_ol grestore 
gsave 23.276447 7.730000 translate 0.035278 -0.035278 scale
start_ol
3072 1642 moveto
3072 0 lineto
2240 0 lineto
2240 267 lineto
2240 1252 lineto
2240 1606 2223 1738 conicto
2207 1871 2167 1934 conicto
2115 2018 2024 2065 conicto
1934 2112 1818 2112 conicto
1537 2112 1376 1903 conicto
1216 1695 1216 1327 conicto
1216 0 lineto
384 0 lineto
384 3712 lineto
1216 3712 lineto
1216 2304 lineto
1412 2534 1632 2643 conicto
1852 2752 2117 2752 conicto
2586 2752 2829 2468 conicto
3072 2184 3072 1642 conicto
end_ol grestore 
1.000000 1.000000 1.000000 srgb
n 1.520000 7.135000 m 1.520000 7.882500 l 8.767500 7.882500 l 8.767500 7.135000 l f
0.000000 0.000000 0.000000 srgb
gsave 1.520000 7.730000 translate 0.035278 -0.035278 scale
start_ol
2176 3712 moveto
2176 3136 lineto
1683 3136 lineto
1493 3136 1419 3076 conicto
1344 3013 1344 2862 conicto
1344 2688 lineto
2368 2688 lineto
2368 2871 lineto
2368 3301 2604 3505 conicto
2840 3712 3334 3712 conicto
3968 3712 lineto
3968 3136 lineto
3513 3136 lineto
3338 3136 3269 3076 conicto
3200 3013 3200 2862 conicto
3200 2688 lineto
3904 2688 lineto
3904 2048 lineto
3200 2048 lineto
3200 0 lineto
2368 0 lineto
2368 2048 lineto
1344 2048 lineto
1344 0 lineto
512 0 lineto
512 2048 lineto
64 2048 lineto
64 2688 lineto
512 2688 lineto
512 2871 lineto
512 3301 757 3505 conicto
1003 3712 1517 3712 conicto
2176 3712 lineto
end_ol grestore 
gsave 2.037012 7.730000 translate 0.035278 -0.035278 scale
start_ol
256 1728 moveto
1728 1728 lineto
1728 1024 lineto
256 1024 lineto
256 1728 lineto
end_ol grestore 
gsave 2.301761 7.730000 translate 0.035278 -0.035278 scale
start_ol
2849 2251 moveto
3012 2496 3235 2624 conicto
3459 2752 3727 2752 conicto
4189 2752 4430 2468 conicto
4672 2184 4672 1642 conicto
4672 0 lineto
3840 0 lineto
3840 1406 lineto
3843 1437 3844 1471 conicto
3845 1505 3845 1567 conicto
3845 1854 3758 1983 conicto
3671 2112 3478 2112 conicto
3224 2112 3086 1910 conicto
2949 1708 2944 1325 conicto
2944 0 lineto
2112 0 lineto
2112 1406 lineto
2112 1854 2032 1983 conicto
1953 2112 1750 2112 conicto
1494 2112 1355 1908 conicto
1216 1705 1216 1327 conicto
1216 0 lineto
384 0 lineto
384 2688 lineto
1216 2688 lineto
1216 2304 lineto
1374 2527 1579 2639 conicto
1785 2752 2033 2752 conicto
2311 2752 2525 2620 conicto
2739 2489 2849 2251 conicto
end_ol grestore 
gsave 2.968635 7.730000 translate 0.035278 -0.035278 scale
start_ol
1585 1216 moveto
1306 1216 1165 1125 conicto
1024 1035 1024 858 conicto
1024 696 1137 604 conicto
1251 512 1453 512 conicto
1704 512 1876 685 conicto
2048 858 2048 1118 conicto
2048 1216 lineto
1585 1216 lineto
2880 1541 moveto
2880 0 lineto
2048 0 lineto
2048 384 lineto
1875 150 1658 43 conicto
1442 -64 1132 -64 conicto
714 -64 453 180 conicto
192 424 192 813 conicto
192 1286 513 1507 conicto
834 1728 1522 1728 conicto
2048 1728 lineto
2048 1800 lineto
2048 1995 1889 2085 conicto
1730 2176 1393 2176 conicto
1120 2176 885 2128 conicto
650 2080 448 1984 conicto
448 2624 lineto
715 2687 984 2719 conicto
1253 2752 1522 2752 conicto
2241 2752 2560 2467 conicto
2880 2182 2880 1541 conicto
end_ol grestore 
gsave 3.400724 7.730000 translate 0.035278 -0.035278 scale
start_ol
2560 2560 moveto
2560 1856 lineto
2386 1987 2210 2049 conicto
2034 2112 1846 2112 conicto
1487 2112 1287 1909 conicto
1088 1707 1088 1344 conicto
1088 981 1287 778 conicto
1487 576 1846 576 conicto
2046 576 2226 640 conicto
2407 705 2560 832 conicto
2560 128 lineto
2359 32 2152 -16 conicto
1945 -64 1736 -64 conicto
1011 -64 601 308 conicto
192 681 192 1344 conicto
192 2007 601 2379 conicto
1011 2752 1736 2752 conicto
1947 2752 2151 2704 conicto
2356 2656 2560 2560 conicto
end_ol grestore 
gsave 3.780368 7.730000 translate 0.035278 -0.035278 scale
start_ol
256 1728 moveto
1728 1728 lineto
1728 1024 lineto
256 1024 lineto
256 1728 lineto
end_ol grestore 
gsave 4.045117 7.730000 translate 0.035278 -0.035278 scale
start_ol
2560 2560 moveto
2560 1856 lineto
2386 1987 2210 2049 conicto
2034 2112 1846 2112 conicto
1487 2112 1287 1909 conicto
1088 1707 1088 1344 conicto
1088 981 1287 778 conicto
1487 576 1846 576 conicto
2046 576 2226 640 conicto
2407 705 2560 832 conicto
2560 128 lineto
2359 32 2152 -16 conicto
1945 -64 1736 -64 conicto
1011 -64 601 308 conicto
192 681 192 1344 conicto
192 2007 601 2379 conicto
1011 2752 1736 2752 conicto
1947 2752 2151 2704 conicto
2356 2656 2560 2560 conicto
end_ol grestore 
gsave 4.424761 7.730000 translate 0.035278 -0.035278 scale
start_ol
2496 2560 moveto
2496 1920 lineto
2225 2048 1973 2112 conicto
1721 2176 1497 2176 conicto
1257 2176 1140 2113 conicto
1024 2050 1024 1919 conicto
1024 1812 1117 1755 conicto
1211 1698 1452 1671 conicto
1609 1650 lineto
2247 1567 2467 1378 conicto
2688 1189 2688 785 conicto
2688 362 2375 149 conicto
2062 -64 1441 -64 conicto
1178 -64 897 -16 conicto
616 32 320 128 conicto
320 768 lineto
580 640 853 576 conicto
1126 512 1408 512 conicto
1663 512 1791 581 conicto
1920 650 1920 785 conicto
1920 899 1829 955 conicto
1738 1011 1467 1042 conicto
1310 1061 lineto
726 1133 491 1326 conicto
256 1520 256 1915 conicto
256 2341 546 2546 conicto
837 2752 1437 2752 conicto
1672 2752 1931 2705 conicto
2191 2659 2496 2560 conicto
end_ol grestore 
gsave 4.804405 7.730000 translate 0.035278 -0.035278 scale
start_ol
2560 2560 moveto
2560 1856 lineto
2386 1987 2210 2049 conicto
2034 2112 1846 2112 conicto
1487 2112 1287 1909 conicto
1088 1707 1088 1344 conicto
1088 981 1287 778 conicto
1487 576 1846 576 conicto
2046 576 2226 640 conicto
2407 705 2560 832 conicto
2560 128 lineto
2359 32 2152 -16 conicto
1945 -64 1736 -64 conicto
1011 -64 601 308 conicto
192 681 192 1344 conicto
192 2007 601 2379 conicto
1011 2752 1736 2752 conicto
1947 2752 2151 2704 conicto
2356 2656 2560 2560 conicto
end_ol grestore 
gsave 5.184049 7.730000 translate 0.035278 -0.035278 scale
start_ol
3072 1642 moveto
3072 0 lineto
2240 0 lineto
2240 267 lineto
2240 1252 lineto
2240 1606 2223 1738 conicto
2207 1871 2167 1934 conicto
2115 2018 2024 2065 conicto
1934 2112 1818 2112 conicto
1537 2112 1376 1903 conicto
1216 1695 1216 1327 conicto
1216 0 lineto
384 0 lineto
384 3712 lineto
1216 3712 lineto
1216 2304 lineto
1412 2534 1632 2643 conicto
1852 2752 2117 2752 conicto
2586 2752 2829 2468 conicto
3072 2184 3072 1642 conicto
end_ol grestore 
gsave 5.638620 7.730000 translate 0.035278 -0.035278 scale
start_ol
3072 1388 moveto
3072 1152 lineto
1024 1152 lineto
1056 832 1247 672 conicto
1438 512 1781 512 conicto
2057 512 2347 591 conicto
2638 671 2944 832 conicto
2944 192 lineto
2640 65 2335 0 conicto
2031 -64 1727 -64 conicto
999 -64 595 306 conicto
192 676 192 1344 conicto
192 2000 588 2376 conicto
985 2752 1680 2752 conicto
2312 2752 2692 2380 conicto
3072 2009 3072 1388 conicto
2240 1664 moveto
2240 1894 2085 2035 conicto
1931 2176 1682 2176 conicto
1413 2176 1244 2044 conicto
1075 1912 1034 1664 conicto
2240 1664 lineto
end_ol grestore 
gsave 6.073206 7.730000 translate 0.035278 -0.035278 scale
start_ol
2240 2304 moveto
2240 3712 lineto
3072 3712 lineto
3072 0 lineto
2240 0 lineto
2240 384 lineto
2060 152 1843 44 conicto
1627 -64 1342 -64 conicto
839 -64 515 330 conicto
192 724 192 1344 conicto
192 1964 515 2358 conicto
839 2752 1342 2752 conicto
1625 2752 1842 2643 conicto
2060 2534 2240 2304 conicto
1663 576 moveto
1944 576 2092 772 conicto
2240 969 2240 1344 conicto
2240 1719 2092 1915 conicto
1944 2112 1663 2112 conicto
1384 2112 1236 1915 conicto
1088 1719 1088 1344 conicto
1088 969 1236 772 conicto
1384 576 1663 576 conicto
end_ol grestore 
gsave 6.530274 7.730000 translate 0.035278 -0.035278 scale
start_ol
256 1728 moveto
1728 1728 lineto
1728 1024 lineto
256 1024 lineto
256 1728 lineto
end_ol grestore 
gsave 6.795023 7.730000 translate 0.035278 -0.035278 scale
start_ol
2496 2560 moveto
2496 1920 lineto
2225 2048 1973 2112 conicto
1721 2176 1497 2176 conicto
1257 2176 1140 2113 conicto
1024 2050 1024 1919 conicto
1024 1812 1117 1755 conicto
1211 1698 1452 1671 conicto
1609 1650 lineto
2247 1567 2467 1378 conicto
2688 1189 2688 785 conicto
2688 362 2375 149 conicto
2062 -64 1441 -64 conicto
1178 -64 897 -16 conicto
616 32 320 128 conicto
320 768 lineto
580 640 853 576 conicto
1126 512 1408 512 conicto
1663 512 1791 581 conicto
1920 650 1920 785 conicto
1920 899 1829 955 conicto
1738 1011 1467 1042 conicto
1310 1061 lineto
726 1133 491 1326 conicto
256 1520 256 1915 conicto
256 2341 546 2546 conicto
837 2752 1437 2752 conicto
1672 2752 1931 2705 conicto
2191 2659 2496 2560 conicto
end_ol grestore 
gsave 7.174667 7.730000 translate 0.035278 -0.035278 scale
start_ol
1585 1216 moveto
1306 1216 1165 1125 conicto
1024 1035 1024 858 conicto
1024 696 1137 604 conicto
1251 512 1453 512 conicto
1704 512 1876 685 conicto
2048 858 2048 1118 conicto
2048 1216 lineto
1585 1216 lineto
2880 1541 moveto
2880 0 lineto
2048 0 lineto
2048 384 lineto
1875 150 1658 43 conicto
1442 -64 1132 -64 conicto
714 -64 453 180 conicto
192 424 192 813 conicto
192 1286 513 1507 conicto
834 1728 1522 1728 conicto
2048 1728 lineto
2048 1800 lineto
2048 1995 1889 2085 conicto
1730 2176 1393 2176 conicto
1120 2176 885 2128 conicto
650 2080 448 1984 conicto
448 2624 lineto
715 2687 984 2719 conicto
1253 2752 1522 2752 conicto
2241 2752 2560 2467 conicto
2880 2182 2880 1541 conicto
end_ol grestore 
gsave 7.606756 7.730000 translate 0.035278 -0.035278 scale
start_ol
1216 384 moveto
1216 -1024 lineto
384 -1024 lineto
384 2688 lineto
1216 2688 lineto
1216 2304 lineto
1396 2534 1614 2643 conicto
1832 2752 2116 2752 conicto
2619 2752 2941 2358 conicto
3264 1964 3264 1344 conicto
3264 724 2941 330 conicto
2619 -64 2116 -64 conicto
1832 -64 1614 45 conicto
1396 154 1216 384 conicto
1794 2112 moveto
1515 2112 1365 1914 conicto
1216 1716 1216 1344 conicto
1216 972 1365 774 conicto
1515 576 1794 576 conicto
2074 576 2221 772 conicto
2368 969 2368 1344 conicto
2368 1719 2221 1915 conicto
2074 2112 1794 2112 conicto
end_ol grestore 
gsave 8.063824 7.730000 translate 0.035278 -0.035278 scale
start_ol
512 896 moveto
1344 896 lineto
1344 0 lineto
512 0 lineto
512 896 lineto
end_ol grestore 
gsave 8.306091 7.730000 translate 0.035278 -0.035278 scale
start_ol
3072 1642 moveto
3072 0 lineto
2240 0 lineto
2240 267 lineto
2240 1252 lineto
2240 1606 2223 1738 conicto
2207 1871 2167 1934 conicto
2115 2018 2024 2065 conicto
1934 2112 1818 2112 conicto
1537 2112 1376 1903 conicto
1216 1695 1216 1327 conicto
1216 0 lineto
384 0 lineto
384 3712 lineto
1216 3712 lineto
1216 2304 lineto
1412 2534 1632 2643 conicto
1852 2752 2117 2752 conicto
2586 2752 2829 2468 conicto
3072 2184 3072 1642 conicto
end_ol grestore 
showpage
